src/ADC_DAC/ADC_MCP3201/MOV_AVG/vcd/icarus_tb.vcd
$date
	Sun May 13 13:54:08 2018
$end
$version
	Icarus Verilog
$end
$timescale
	1ns
$end
$scope module ICARUS_TB $end
$var wire 12 ! value_avg [11:0] $end
$var wire 12 " value [11:0] $end
$var wire 1 # latch_dac $end
$var wire 1 $ cs_adc_avg $end
$var wire 1 % cs_adc $end
$var wire 1 & clk_adc_avg $end
$var wire 1 ' clk_adc $end
$var reg 1 ( clk $end
$var reg 1 ) latch $end
$var reg 1 * sdi_adc $end
$scope module adc_mcp3201 $end
$var wire 1 ( CLK $end
$var wire 1 ) LATCH $end
$var wire 1 * SDI_ADC $end
$var wire 1 + clk_adc_fe $end
$var wire 1 , clk_adc_re $end
$var wire 1 - latch_start $end
$var reg 1 ' CLK_ADC $end
$var reg 1 % CS_ADC $end
$var reg 12 . VALUE [11:0] $end
$var reg 12 / ctr_clk_cs [11:0] $end
$var reg 16 0 ctr_clk_spi [15:0] $end
$var reg 1 1 hri1 $end
$var reg 1 2 hri2 $end
$var reg 1 3 hri3 $end
$var reg 1 4 hri4 $end
$var reg 12 5 index [11:0] $end
$var reg 5 6 state [4:0] $end
$var reg 12 7 value_temp [11:0] $end
$upscope $end
$scope module adc_mcp3201_mov_avg $end
$var wire 1 ( CLK $end
$var wire 1 ) LATCH $end
$var wire 1 * SDI_ADC $end
$var wire 1 8 latch_adc $end
$var wire 1 9 latch_cs_re $end
$var wire 1 : latch_start $end
$var wire 12 ; value_adc [11:0] $end
$var wire 1 $ CS_ADC $end
$var wire 1 & CLK_ADC $end
$var reg 1 # LATCH_DAC $end
$var reg 12 < VALUE [11:0] $end
$var reg 12 = ctr_latch [11:0] $end
$var reg 1 > ctr_latch_enable $end
$var reg 11 ? ctr_mov_avg [10:0] $end
$var reg 12 @ ctr_sample [11:0] $end
$var reg 1 A hri1 $end
$var reg 1 B hri2 $end
$var reg 1 C hri3 $end
$var reg 1 D hri4 $end
$var reg 16 E state [15:0] $end
$var reg 16 F summe_mov_avg [15:0] $end
$var reg 12 G value_adc_1 [11:0] $end
$var reg 12 H value_adc_2 [11:0] $end
$var reg 12 I value_adc_3 [11:0] $end
$var reg 12 J value_adc_4 [11:0] $end
$var reg 16 K value_temp [15:0] $end
$scope module adc_mcp3201 $end
$var wire 1 ( CLK $end
$var wire 1 8 LATCH $end
$var wire 1 * SDI_ADC $end
$var wire 1 L clk_adc_fe $end
$var wire 1 M clk_adc_re $end
$var wire 1 N latch_start $end
$var reg 1 & CLK_ADC $end
$var reg 1 $ CS_ADC $end
$var reg 12 O VALUE [11:0] $end
$var reg 12 P ctr_clk_cs [11:0] $end
$var reg 16 Q ctr_clk_spi [15:0] $end
$var reg 1 R hri1 $end
$var reg 1 S hri2 $end
$var reg 1 T hri3 $end
$var reg 1 U hri4 $end
$var reg 12 V index [11:0] $end
$var reg 5 W state [4:0] $end
$var reg 12 X value_temp [11:0] $end
$upscope $end
$upscope $end
$upscope $end
$enddefinitions $end
#0
$dumpvars
b0 X
b0 W
b1111 V
0U
0T
0S
xR
b1 Q
b1 P
b0 O
xN
0M
0L
b0 K
b0 J
b0 I
b0 H
b0 G
b0 F
b0 E
xD
1C
xB
0A
b0 @
b1 ?
1>
b10 =
b0 <
b0 ;
0:
x9
08
b0 7
b0 6
b1111 5
04
03
02
01
b1 0
b1 /
b0 .
0-
0,
0+
0*
0)
1(
0'
0&
1%
1$
0#
b0 "
b0 !
$end
#10
0(
#20
09
0N
b11 =
1D
0B
xS
0R
1(
#30
0(
#40
0S
b100 =
1(
#50
0(
#60
b101 =
1(
#70
0(
#80
b110 =
1(
#90
0(
#100
b111 =
1(
#110
0(
#120
b1000 =
1(
#130
0(
#140
b1001 =
1(
#150
0(
#160
b1010 =
1(
#170
0(
#180
b1011 =
1(
#190
0(
#200
b1100 =
1(
#210
0(
#220
b1101 =
1(
#230
0(
#240
b1110 =
1(
#250
0(
#260
b1111 =
1(
#270
0(
#280
b10000 =
1(
#290
0(
#300
b10001 =
1(
#310
0(
#320
b10010 =
1(
#330
0(
#340
b10011 =
1(
#350
0(
#360
b10100 =
1(
#370
0(
#380
b10101 =
1(
#390
0(
#400
b10110 =
1(
#410
0(
#420
b10111 =
1(
#430
0(
#440
b11000 =
1(
#450
0(
#460
b11001 =
1(
#470
0(
#480
b11010 =
1(
#490
0(
#500
18
1:
1-
b11011 =
1A
11
1(
1)
#510
0(
#520
08
0-
1N
0:
b1 6
0%
12
1R
b11100 =
1B
1(
#530
0(
#540
0N
b11101 =
b1 W
0$
1S
0R
b10 0
b10 /
1(
#550
0(
#560
b11 0
b11 /
b10 Q
b10 P
0S
b11110 =
0C
1(
#570
0(
#580
b11111 =
0D
b11 Q
b11 P
b100 0
b100 /
1(
#590
0(
#600
b101 0
b101 /
b100 Q
b100 P
b100000 =
1(
#610
0(
#620
b100001 =
b101 Q
b101 P
b110 0
b110 /
1(
#630
0(
#640
b111 0
b111 /
b110 Q
b110 P
b100010 =
1(
#650
0(
#660
b100011 =
b111 Q
b111 P
b1000 0
b1000 /
1(
#670
0(
#680
b1001 0
b1001 /
b1000 Q
b1000 P
b100100 =
1(
#690
0(
#700
b100101 =
b1001 Q
b1001 P
b1010 0
b1010 /
1(
#710
0(
#720
b1011 0
b1011 /
b1010 Q
b1010 P
b100110 =
1(
#730
0(
#740
b100111 =
b1011 Q
b1011 P
b1100 0
b1100 /
1(
#750
0(
#760
b1101 0
b1101 /
b1100 Q
b1100 P
b101000 =
1(
#770
0(
#780
b101001 =
b1101 Q
b1101 P
b1110 0
b1110 /
1(
#790
0(
#800
b1111 0
b1111 /
b1110 Q
b1110 P
b101010 =
1(
#810
0(
#820
b101011 =
b1111 Q
b1111 P
b10000 0
b10000 /
1(
#830
0(
#840
b10001 0
b10001 /
b10000 Q
b10000 P
b101100 =
1(
#850
0(
#860
b101101 =
b10001 Q
b10001 P
b10010 0
b10010 /
1(
#870
0(
#880
b10011 0
b10011 /
b10010 Q
b10010 P
b101110 =
1(
#890
0(
#900
b101111 =
b10011 Q
b10011 P
b10100 0
b10100 /
1(
#910
0(
#920
b10101 0
b10101 /
b10100 Q
b10100 P
b110000 =
1(
#930
0(
#940
b110001 =
b10101 Q
b10101 P
b10110 0
b10110 /
1(
#950
0(
#960
b10111 0
b10111 /
b10110 Q
b10110 P
b110010 =
1(
#970
0(
#980
b110011 =
b10111 Q
b10111 P
b11000 0
b11000 /
1(
#990
0(
#1000
b11001 0
b11001 /
b11000 Q
b11000 P
b110100 =
1(
#1010
0(
#1020
b110101 =
b11001 Q
b11001 P
1'
b1 0
b11010 /
1(
#1030
0(
#1040
1,
b10 0
b11011 /
13
1&
b1 Q
b11010 P
b110110 =
1(
#1050
0(
#1060
1M
0,
b110111 =
b10 Q
b11011 P
1T
b11 0
b11100 /
14
1(
#1070
0(
#1080
0M
b100 0
b11101 /
b11 Q
b11100 P
1U
b111000 =
1(
#1090
0(
#1100
b111001 =
b100 Q
b11101 P
b101 0
b11110 /
1(
#1110
0(
#1120
b110 0
b11111 /
01
b101 Q
b11110 P
b111010 =
0A
1(
0)
#1130
0(
#1140
b111011 =
0B
b110 Q
b11111 P
b111 0
b100000 /
02
1(
#1150
0(
#1160
b1000 0
b100001 /
b111 Q
b100000 P
b111100 =
1(
#1170
0(
#1180
b111101 =
b1000 Q
b100001 P
b1001 0
b100010 /
1(
#1190
0(
#1200
b1010 0
b100011 /
b1001 Q
b100010 P
b111110 =
1(
#1210
0(
#1220
b111111 =
b1010 Q
b100011 P
b1011 0
b100100 /
1(
#1230
0(
#1240
b1100 0
b100101 /
b1011 Q
b100100 P
b1000000 =
1(
#1250
0(
#1260
b1000001 =
b1100 Q
b100101 P
b1101 0
b100110 /
1(
#1270
0(
#1280
b1110 0
b100111 /
b1101 Q
b100110 P
b1000010 =
1(
#1290
0(
#1300
b1000011 =
b1110 Q
b100111 P
b1111 0
b101000 /
1(
#1310
0(
#1320
b10000 0
b101001 /
b1111 Q
b101000 P
b1000100 =
1(
#1330
0(
#1340
b1000101 =
b10000 Q
b101001 P
b10001 0
b101010 /
1(
#1350
0(
#1360
b10010 0
b101011 /
b10001 Q
b101010 P
b1000110 =
1(
#1370
0(
#1380
b1000111 =
b10010 Q
b101011 P
b10011 0
b101100 /
1(
#1390
0(
#1400
b10100 0
b101101 /
b10011 Q
b101100 P
b1001000 =
1(
#1410
0(
#1420
b1001001 =
b10100 Q
b101101 P
b10101 0
b101110 /
1(
#1430
0(
#1440
b10110 0
b101111 /
b10101 Q
b101110 P
b1001010 =
1(
#1450
0(
#1460
b1001011 =
b10110 Q
b101111 P
b10111 0
b110000 /
1(
#1470
0(
#1480
b11000 0
b110001 /
b10111 Q
b110000 P
b1001100 =
1(
#1490
0(
#1500
b1001101 =
b11000 Q
b110001 P
b11001 0
b110010 /
1(
#1510
0(
#1520
0'
b1 0
b110011 /
b11001 Q
b110010 P
b1001110 =
1(
#1530
0(
#1540
1+
b1001111 =
0&
b1 Q
b110011 P
b10 0
b110100 /
03
1(
#1550
0(
#1560
0+
1L
b1110 5
b11 0
b110101 /
04
b10 Q
b110100 P
0T
b1010000 =
1(
#1570
0(
#1580
0L
b1010001 =
b1110 V
b11 Q
b110101 P
0U
b100 0
b110110 /
1(
#1590
0(
#1600
b101 0
b110111 /
b100 Q
b110110 P
b1010010 =
1(
#1610
0(
#1620
b1010011 =
b101 Q
b110111 P
b110 0
b111000 /
1(
#1630
0(
#1640
b111 0
b111001 /
b110 Q
b111000 P
b1010100 =
1(
#1650
0(
#1660
b1010101 =
b111 Q
b111001 P
b1000 0
b111010 /
1(
#1670
0(
#1680
b1001 0
b111011 /
b1000 Q
b111010 P
b1010110 =
1(
#1690
0(
#1700
b1010111 =
b1001 Q
b111011 P
b1010 0
b111100 /
1(
#1710
0(
#1720
b1011 0
b111101 /
b1010 Q
b111100 P
b1011000 =
1(
#1730
0(
#1740
b1011001 =
b1011 Q
b111101 P
b1100 0
b111110 /
1(
#1750
0(
#1760
b1101 0
b111111 /
b1100 Q
b111110 P
b1011010 =
1(
#1770
0(
#1780
b1011011 =
b1101 Q
b111111 P
b1110 0
b1000000 /
1(
#1790
0(
#1800
b1111 0
b1000001 /
b1110 Q
b1000000 P
b1011100 =
1(
#1810
0(
#1820
b1011101 =
b1111 Q
b1000001 P
b10000 0
b1000010 /
1(
#1830
0(
#1840
b10001 0
b1000011 /
b10000 Q
b1000010 P
b1011110 =
1(
#1850
0(
#1860
b1011111 =
b10001 Q
b1000011 P
b10010 0
b1000100 /
1(
#1870
0(
#1880
b10011 0
b1000101 /
b10010 Q
b1000100 P
b1100000 =
1(
#1890
0(
#1900
b1100001 =
b10011 Q
b1000101 P
b10100 0
b1000110 /
1(
#1910
0(
#1920
b10101 0
b1000111 /
b10100 Q
b1000110 P
b1100010 =
1(
#1930
0(
#1940
b1100011 =
b10101 Q
b1000111 P
b10110 0
b1001000 /
1(
#1950
0(
#1960
b10111 0
b1001001 /
b10110 Q
b1001000 P
b1100100 =
1(
#1970
0(
#1980
b1100101 =
b10111 Q
b1001001 P
b11000 0
b1001010 /
1(
#1990
0(
#2000
b11001 0
b1001011 /
b11000 Q
b1001010 P
b1100110 =
1(
#2010
0(
#2020
b1100111 =
b11001 Q
b1001011 P
1'
b1 0
b1001100 /
1(
#2030
0(
#2040
1,
b10 0
b1001101 /
13
1&
b1 Q
b1001100 P
b1101000 =
1(
#2050
0(
#2060
1M
0,
b1101001 =
b10 Q
b1001101 P
1T
b11 0
b1001110 /
14
1(
#2070
0(
#2080
0M
b100 0
b1001111 /
b11 Q
b1001110 P
1U
b1101010 =
1(
#2090
0(
#2100
b1101011 =
b100 Q
b1001111 P
b101 0
b1010000 /
1(
#2110
0(
#2120
b110 0
b1010001 /
b101 Q
b1010000 P
b1101100 =
1(
#2130
0(
#2140
b1101101 =
b110 Q
b1010001 P
b111 0
b1010010 /
1(
#2150
0(
#2160
b1000 0
b1010011 /
b111 Q
b1010010 P
b1101110 =
1(
#2170
0(
#2180
b1101111 =
b1000 Q
b1010011 P
b1001 0
b1010100 /
1(
#2190
0(
#2200
b1010 0
b1010101 /
b1001 Q
b1010100 P
b1110000 =
1(
#2210
0(
#2220
b1110001 =
b1010 Q
b1010101 P
b1011 0
b1010110 /
1(
#2230
0(
#2240
b1100 0
b1010111 /
b1011 Q
b1010110 P
b1110010 =
1(
#2250
0(
#2260
b1110011 =
b1100 Q
b1010111 P
b1101 0
b1011000 /
1(
#2270
0(
#2280
b1110 0
b1011001 /
b1101 Q
b1011000 P
b1110100 =
1(
#2290
0(
#2300
b1110101 =
b1110 Q
b1011001 P
b1111 0
b1011010 /
1(
#2310
0(
#2320
b10000 0
b1011011 /
b1111 Q
b1011010 P
b1110110 =
1(
#2330
0(
#2340
b1110111 =
b10000 Q
b1011011 P
b10001 0
b1011100 /
1(
#2350
0(
#2360
b10010 0
b1011101 /
b10001 Q
b1011100 P
b1111000 =
1(
#2370
0(
#2380
b1111001 =
b10010 Q
b1011101 P
b10011 0
b1011110 /
1(
#2390
0(
#2400
b10100 0
b1011111 /
b10011 Q
b1011110 P
b1111010 =
1(
#2410
0(
#2420
b1111011 =
b10100 Q
b1011111 P
b10101 0
b1100000 /
1(
#2430
0(
#2440
b10110 0
b1100001 /
b10101 Q
b1100000 P
b1111100 =
1(
#2450
0(
#2460
b1111101 =
b10110 Q
b1100001 P
b10111 0
b1100010 /
1(
#2470
0(
#2480
b11000 0
b1100011 /
b10111 Q
b1100010 P
b1111110 =
1(
#2490
0(
#2500
b1111111 =
b11000 Q
b1100011 P
b11001 0
b1100100 /
1(
#2510
0(
#2520
0'
b1 0
b1100101 /
b11001 Q
b1100100 P
b10000000 =
1(
#2530
0(
#2540
1+
b10000001 =
0&
b1 Q
b1100101 P
b10 0
b1100110 /
03
1(
#2550
0(
#2560
0+
1L
b1101 5
b11 0
b1100111 /
04
b10 Q
b1100110 P
0T
b10000010 =
1(
#2570
0(
#2580
0L
b10000011 =
b1101 V
b11 Q
b1100111 P
0U
b100 0
b1101000 /
1(
#2590
0(
#2600
b101 0
b1101001 /
b100 Q
b1101000 P
b10000100 =
1(
#2610
0(
#2620
b10000101 =
b101 Q
b1101001 P
b110 0
b1101010 /
1(
#2630
0(
#2640
b111 0
b1101011 /
b110 Q
b1101010 P
b10000110 =
1(
#2650
0(
#2660
b10000111 =
b111 Q
b1101011 P
b1000 0
b1101100 /
1(
#2670
0(
#2680
b1001 0
b1101101 /
b1000 Q
b1101100 P
b10001000 =
1(
#2690
0(
#2700
b10001001 =
b1001 Q
b1101101 P
b1010 0
b1101110 /
1(
#2710
0(
#2720
b1011 0
b1101111 /
b1010 Q
b1101110 P
b10001010 =
1(
#2730
0(
#2740
b10001011 =
b1011 Q
b1101111 P
b1100 0
b1110000 /
1(
#2750
0(
#2760
b1101 0
b1110001 /
b1100 Q
b1110000 P
b10001100 =
1(
#2770
0(
#2780
b10001101 =
b1101 Q
b1110001 P
b1110 0
b1110010 /
1(
#2790
0(
#2800
b1111 0
b1110011 /
b1110 Q
b1110010 P
b10001110 =
1(
#2810
0(
#2820
b10001111 =
b1111 Q
b1110011 P
b10000 0
b1110100 /
1(
#2830
0(
#2840
b10001 0
b1110101 /
b10000 Q
b1110100 P
b10010000 =
1(
#2850
0(
#2860
b10010001 =
b10001 Q
b1110101 P
b10010 0
b1110110 /
1(
#2870
0(
#2880
b10011 0
b1110111 /
b10010 Q
b1110110 P
b10010010 =
1(
#2890
0(
#2900
b10010011 =
b10011 Q
b1110111 P
b10100 0
b1111000 /
1(
#2910
0(
#2920
b10101 0
b1111001 /
b10100 Q
b1111000 P
b10010100 =
1(
#2930
0(
#2940
b10010101 =
b10101 Q
b1111001 P
b10110 0
b1111010 /
1(
#2950
0(
#2960
b10111 0
b1111011 /
b10110 Q
b1111010 P
b10010110 =
1(
#2970
0(
#2980
b10010111 =
b10111 Q
b1111011 P
b11000 0
b1111100 /
1(
#2990
0(
#3000
b11001 0
b1111101 /
b11000 Q
b1111100 P
b10011000 =
1(
#3010
0(
#3020
b10011001 =
b11001 Q
b1111101 P
1'
b1 0
b1111110 /
1(
#3030
0(
#3040
1,
b10 0
b1111111 /
13
1&
b1 Q
b1111110 P
b10011010 =
1(
#3050
0(
#3060
1M
0,
b10011011 =
b10 Q
b1111111 P
1T
b11 0
b10000000 /
14
1(
#3070
0(
#3080
0M
b100 0
b10000001 /
b11 Q
b10000000 P
1U
b10011100 =
1(
#3090
0(
#3100
b10011101 =
b100 Q
b10000001 P
b101 0
b10000010 /
1(
#3110
0(
#3120
b110 0
b10000011 /
b101 Q
b10000010 P
b10011110 =
1(
#3130
0(
#3140
b10011111 =
b110 Q
b10000011 P
b111 0
b10000100 /
1(
#3150
0(
#3160
b1000 0
b10000101 /
b111 Q
b10000100 P
b10100000 =
1(
#3170
0(
#3180
b10100001 =
b1000 Q
b10000101 P
b1001 0
b10000110 /
1(
#3190
0(
#3200
b1010 0
b10000111 /
b1001 Q
b10000110 P
b10100010 =
1(
#3210
0(
#3220
b10100011 =
b1010 Q
b10000111 P
b1011 0
b10001000 /
1(
#3230
0(
#3240
b1100 0
b10001001 /
b1011 Q
b10001000 P
b10100100 =
1(
#3250
0(
#3260
b10100101 =
b1100 Q
b10001001 P
b1101 0
b10001010 /
1(
#3270
0(
#3280
b1110 0
b10001011 /
b1101 Q
b10001010 P
b10100110 =
1(
#3290
0(
#3300
b10100111 =
b1110 Q
b10001011 P
b1111 0
b10001100 /
1(
#3310
0(
#3320
b10000 0
b10001101 /
b1111 Q
b10001100 P
b10101000 =
1(
#3330
0(
#3340
b10101001 =
b10000 Q
b10001101 P
b10001 0
b10001110 /
1(
#3350
0(
#3360
b10010 0
b10001111 /
b10001 Q
b10001110 P
b10101010 =
1(
#3370
0(
#3380
b10101011 =
b10010 Q
b10001111 P
b10011 0
b10010000 /
1(
#3390
0(
#3400
b10100 0
b10010001 /
b10011 Q
b10010000 P
b10101100 =
1(
#3410
0(
#3420
b10101101 =
b10100 Q
b10010001 P
b10101 0
b10010010 /
1(
#3430
0(
#3440
b10110 0
b10010011 /
b10101 Q
b10010010 P
b10101110 =
1(
#3450
0(
#3460
b10101111 =
b10110 Q
b10010011 P
b10111 0
b10010100 /
1(
#3470
0(
#3480
b11000 0
b10010101 /
b10111 Q
b10010100 P
b10110000 =
1(
#3490
0(
#3500
b10110001 =
b11000 Q
b10010101 P
b11001 0
b10010110 /
1(
#3510
0(
#3520
0'
b1 0
b10010111 /
b11001 Q
b10010110 P
b10110010 =
1(
#3530
0(
#3540
1+
b10110011 =
0&
b1 Q
b10010111 P
b10 0
b10011000 /
03
1(
#3550
0(
#3560
0+
1L
b1100 5
b11 0
b10011001 /
04
b10 Q
b10011000 P
0T
b10110100 =
1(
#3570
0(
#3580
0L
b10110101 =
b1100 V
b11 Q
b10011001 P
0U
b100 0
b10011010 /
1(
#3590
0(
#3600
b101 0
b10011011 /
b100 Q
b10011010 P
b10110110 =
1(
#3610
0(
#3620
b10110111 =
b101 Q
b10011011 P
b110 0
b10011100 /
1(
#3630
0(
#3640
b111 0
b10011101 /
b110 Q
b10011100 P
b10111000 =
1(
#3650
0(
#3660
b10111001 =
b111 Q
b10011101 P
b1000 0
b10011110 /
1(
#3670
0(
#3680
b1001 0
b10011111 /
b1000 Q
b10011110 P
b10111010 =
1(
#3690
0(
#3700
b10111011 =
b1001 Q
b10011111 P
b1010 0
b10100000 /
1(
#3710
0(
#3720
b1011 0
b10100001 /
b1010 Q
b10100000 P
b10111100 =
1(
#3730
0(
#3740
b10111101 =
b1011 Q
b10100001 P
b1100 0
b10100010 /
1(
#3750
0(
#3760
b1101 0
b10100011 /
b1100 Q
b10100010 P
b10111110 =
1(
#3770
0(
#3780
b10111111 =
b1101 Q
b10100011 P
b1110 0
b10100100 /
1(
#3790
0(
#3800
b1111 0
b10100101 /
b1110 Q
b10100100 P
b11000000 =
1(
#3810
0(
#3820
b11000001 =
b1111 Q
b10100101 P
b10000 0
b10100110 /
1(
#3830
0(
#3840
b10001 0
b10100111 /
b10000 Q
b10100110 P
b11000010 =
1(
#3850
0(
#3860
b11000011 =
b10001 Q
b10100111 P
b10010 0
b10101000 /
1(
#3870
0(
#3880
b10011 0
b10101001 /
b10010 Q
b10101000 P
b11000100 =
1(
#3890
0(
#3900
b11000101 =
b10011 Q
b10101001 P
b10100 0
b10101010 /
1(
#3910
0(
#3920
b10101 0
b10101011 /
b10100 Q
b10101010 P
b11000110 =
1(
#3930
0(
#3940
b11000111 =
b10101 Q
b10101011 P
b10110 0
b10101100 /
1(
#3950
0(
#3960
b10111 0
b10101101 /
b10110 Q
b10101100 P
b11001000 =
1(
#3970
0(
#3980
b11001001 =
b10111 Q
b10101101 P
b11000 0
b10101110 /
1(
#3990
0(
#4000
b11001 0
b10101111 /
b11000 Q
b10101110 P
b11001010 =
1(
#4010
0(
#4020
b11001011 =
b11001 Q
b10101111 P
1'
b1 0
b10110000 /
1(
#4030
0(
#4040
1,
b10 0
b10110001 /
13
1&
b1 Q
b10110000 P
b11001100 =
1(
#4050
0(
#4060
1M
0,
b11001101 =
b10 Q
b10110001 P
1T
b11 0
b10110010 /
14
1(
#4070
0(
#4080
0M
b100 0
b10110011 /
b11 Q
b10110010 P
1U
b11001110 =
1(
#4090
0(
#4100
b11001111 =
b100 Q
b10110011 P
b101 0
b10110100 /
1(
#4110
0(
#4120
b110 0
b10110101 /
b101 Q
b10110100 P
b11010000 =
1(
1*
#4130
0(
#4140
b11010001 =
b110 Q
b10110101 P
b111 0
b10110110 /
1(
#4150
0(
#4160
b1000 0
b10110111 /
b111 Q
b10110110 P
b11010010 =
1(
#4170
0(
#4180
b11010011 =
b1000 Q
b10110111 P
b1001 0
b10111000 /
1(
#4190
0(
#4200
b1010 0
b10111001 /
b1001 Q
b10111000 P
b11010100 =
1(
#4210
0(
#4220
b11010101 =
b1010 Q
b10111001 P
b1011 0
b10111010 /
1(
#4230
0(
#4240
b1100 0
b10111011 /
b1011 Q
b10111010 P
b11010110 =
1(
#4250
0(
#4260
b11010111 =
b1100 Q
b10111011 P
b1101 0
b10111100 /
1(
#4270
0(
#4280
b1110 0
b10111101 /
b1101 Q
b10111100 P
b11011000 =
1(
#4290
0(
#4300
b11011001 =
b1110 Q
b10111101 P
b1111 0
b10111110 /
1(
#4310
0(
#4320
b10000 0
b10111111 /
b1111 Q
b10111110 P
b11011010 =
1(
#4330
0(
#4340
b11011011 =
b10000 Q
b10111111 P
b10001 0
b11000000 /
1(
#4350
0(
#4360
b10010 0
b11000001 /
b10001 Q
b11000000 P
b11011100 =
1(
#4370
0(
#4380
b11011101 =
b10010 Q
b11000001 P
b10011 0
b11000010 /
1(
#4390
0(
#4400
b10100 0
b11000011 /
b10011 Q
b11000010 P
b11011110 =
1(
#4410
0(
#4420
b11011111 =
b10100 Q
b11000011 P
b10101 0
b11000100 /
1(
#4430
0(
#4440
b10110 0
b11000101 /
b10101 Q
b11000100 P
b11100000 =
1(
#4450
0(
#4460
b11100001 =
b10110 Q
b11000101 P
b10111 0
b11000110 /
1(
#4470
0(
#4480
b11000 0
b11000111 /
b10111 Q
b11000110 P
b11100010 =
1(
#4490
0(
#4500
b11100011 =
b11000 Q
b11000111 P
b11001 0
b11001000 /
1(
#4510
0(
#4520
0'
b1 0
b11001001 /
b11001 Q
b11001000 P
b11100100 =
1(
#4530
0(
#4540
1+
b11100101 =
0&
b1 Q
b11001001 P
b10 0
b11001010 /
03
1(
#4550
0(
#4560
0+
1L
b1011 5
b11 0
b11001011 /
04
b10 Q
b11001010 P
0T
b11100110 =
1(
#4570
0(
#4580
0L
b11100111 =
b1011 V
b11 Q
b11001011 P
0U
b100 0
b11001100 /
1(
#4590
0(
#4600
b101 0
b11001101 /
b100 Q
b11001100 P
b11101000 =
1(
#4610
0(
#4620
b11101001 =
b101 Q
b11001101 P
b110 0
b11001110 /
1(
#4630
0(
#4640
b111 0
b11001111 /
b110 Q
b11001110 P
b11101010 =
1(
#4650
0(
#4660
b11101011 =
b111 Q
b11001111 P
b1000 0
b11010000 /
1(
#4670
0(
#4680
b1001 0
b11010001 /
b1000 Q
b11010000 P
b11101100 =
1(
#4690
0(
#4700
b11101101 =
b1001 Q
b11010001 P
b1010 0
b11010010 /
1(
#4710
0(
#4720
b1011 0
b11010011 /
b1010 Q
b11010010 P
b11101110 =
1(
#4730
0(
#4740
b11101111 =
b1011 Q
b11010011 P
b1100 0
b11010100 /
1(
#4750
0(
#4760
b1101 0
b11010101 /
b1100 Q
b11010100 P
b11110000 =
1(
#4770
0(
#4780
b11110001 =
b1101 Q
b11010101 P
b1110 0
b11010110 /
1(
#4790
0(
#4800
b1111 0
b11010111 /
b1110 Q
b11010110 P
b11110010 =
1(
#4810
0(
#4820
b11110011 =
b1111 Q
b11010111 P
b10000 0
b11011000 /
1(
#4830
0(
#4840
b10001 0
b11011001 /
b10000 Q
b11011000 P
b11110100 =
1(
#4850
0(
#4860
b11110101 =
b10001 Q
b11011001 P
b10010 0
b11011010 /
1(
#4870
0(
#4880
b10011 0
b11011011 /
b10010 Q
b11011010 P
b11110110 =
1(
#4890
0(
#4900
b11110111 =
b10011 Q
b11011011 P
b10100 0
b11011100 /
1(
#4910
0(
#4920
b10101 0
b11011101 /
b10100 Q
b11011100 P
b11111000 =
1(
#4930
0(
#4940
b11111001 =
b10101 Q
b11011101 P
b10110 0
b11011110 /
1(
#4950
0(
#4960
b10111 0
b11011111 /
b10110 Q
b11011110 P
b11111010 =
1(
#4970
0(
#4980
b11111011 =
b10111 Q
b11011111 P
b11000 0
b11100000 /
1(
#4990
0(
#5000
b11001 0
b11100001 /
b11000 Q
b11100000 P
b11111100 =
1(
#5010
0(
#5020
b11111101 =
b11001 Q
b11100001 P
1'
b1 0
b11100010 /
1(
#5030
0(
#5040
1,
b10 0
b11100011 /
13
1&
b1 Q
b11100010 P
b11111110 =
1(
#5050
0(
#5060
1M
0,
b11111111 =
b10 Q
b11100011 P
1T
b10000000000 7
b11 0
b11100100 /
14
1(
#5070
0(
#5080
0M
b100 0
b11100101 /
b10000000000 X
b11 Q
b11100100 P
1U
b100000000 =
1(
#5090
0(
#5100
b100000001 =
b100 Q
b11100101 P
b101 0
b11100110 /
1(
#5110
0(
#5120
b110 0
b11100111 /
b101 Q
b11100110 P
b100000010 =
1(
#5130
0(
#5140
b100000011 =
b110 Q
b11100111 P
b111 0
b11101000 /
1(
#5150
0(
#5160
b1000 0
b11101001 /
b111 Q
b11101000 P
b100000100 =
1(
#5170
0(
#5180
b100000101 =
b1000 Q
b11101001 P
b1001 0
b11101010 /
1(
#5190
0(
#5200
b1010 0
b11101011 /
b1001 Q
b11101010 P
b100000110 =
1(
#5210
0(
#5220
b100000111 =
b1010 Q
b11101011 P
b1011 0
b11101100 /
1(
#5230
0(
#5240
b1100 0
b11101101 /
b1011 Q
b11101100 P
b100001000 =
1(
#5250
0(
#5260
b100001001 =
b1100 Q
b11101101 P
b1101 0
b11101110 /
1(
#5270
0(
#5280
b1110 0
b11101111 /
b1101 Q
b11101110 P
b100001010 =
1(
#5290
0(
#5300
b100001011 =
b1110 Q
b11101111 P
b1111 0
b11110000 /
1(
#5310
0(
#5320
b10000 0
b11110001 /
b1111 Q
b11110000 P
b100001100 =
1(
0*
#5330
0(
#5340
b100001101 =
b10000 Q
b11110001 P
b10001 0
b11110010 /
1(
#5350
0(
#5360
b10010 0
b11110011 /
b10001 Q
b11110010 P
b100001110 =
1(
#5370
0(
#5380
b100001111 =
b10010 Q
b11110011 P
b10011 0
b11110100 /
1(
#5390
0(
#5400
b10100 0
b11110101 /
b10011 Q
b11110100 P
b100010000 =
1(
#5410
0(
#5420
b100010001 =
b10100 Q
b11110101 P
b10101 0
b11110110 /
1(
#5430
0(
#5440
b10110 0
b11110111 /
b10101 Q
b11110110 P
b100010010 =
1(
#5450
0(
#5460
b100010011 =
b10110 Q
b11110111 P
b10111 0
b11111000 /
1(
#5470
0(
#5480
b11000 0
b11111001 /
b10111 Q
b11111000 P
b100010100 =
1(
#5490
0(
#5500
b100010101 =
b11000 Q
b11111001 P
b11001 0
b11111010 /
1(
#5510
0(
#5520
0'
b1 0
b11111011 /
b11001 Q
b11111010 P
b100010110 =
1(
#5530
0(
#5540
1+
b100010111 =
0&
b1 Q
b11111011 P
b10 0
b11111100 /
03
1(
#5550
0(
#5560
0+
1L
b1010 5
b11 0
b11111101 /
04
b10 Q
b11111100 P
0T
b100011000 =
1(
#5570
0(
#5580
0L
b100011001 =
b1010 V
b11 Q
b11111101 P
0U
b100 0
b11111110 /
1(
#5590
0(
#5600
b101 0
b11111111 /
b100 Q
b11111110 P
b100011010 =
1(
#5610
0(
#5620
b100011011 =
b101 Q
b11111111 P
b110 0
b100000000 /
1(
#5630
0(
#5640
b111 0
b100000001 /
b110 Q
b100000000 P
b100011100 =
1(
#5650
0(
#5660
b100011101 =
b111 Q
b100000001 P
b1000 0
b100000010 /
1(
#5670
0(
#5680
b1001 0
b100000011 /
b1000 Q
b100000010 P
b100011110 =
1(
#5690
0(
#5700
b100011111 =
b1001 Q
b100000011 P
b1010 0
b100000100 /
1(
#5710
0(
#5720
b1011 0
b100000101 /
b1010 Q
b100000100 P
b100100000 =
1(
#5730
0(
#5740
b100100001 =
b1011 Q
b100000101 P
b1100 0
b100000110 /
1(
#5750
0(
#5760
b1101 0
b100000111 /
b1100 Q
b100000110 P
b100100010 =
1(
#5770
0(
#5780
b100100011 =
b1101 Q
b100000111 P
b1110 0
b100001000 /
1(
#5790
0(
#5800
b1111 0
b100001001 /
b1110 Q
b100001000 P
b100100100 =
1(
#5810
0(
