src/SPI/HOST/vcd/icarus_tb.vcd
$date
	Sun May 06 07:41:01 2018
$end
$version
	Icarus Verilog
$end
$timescale
	1ns
$end
$scope module ICARUS_TB $end
$var wire 1 ! spi_miso_tri $end
$var wire 1 " spi_miso $end
$var wire 1 # data_write $end
$var wire 1 $ data_read $end
$var wire 256 % data_out [255:0] $end
$var reg 1 & clk $end
$var reg 256 ' data_in [255:0] $end
$var reg 1 ( reset $end
$var reg 1 ) spi_clk $end
$var reg 1 * spi_cs $end
$var reg 1 + spi_mosi $end
$scope module spiHost $end
$var wire 1 & CLK $end
$var wire 256 , DATA_IN [255:0] $end
$var wire 1 ( RESET $end
$var wire 1 ) SPI_CLK $end
$var wire 1 * SPI_CS $end
$var wire 1 - SPI_CS_OUT $end
$var wire 1 ! SPI_MISO_TRI $end
$var wire 1 + SPI_MOSI $end
$var wire 1 . spi_clk_fe $end
$var wire 1 / spi_clk_re $end
$var wire 1 0 spi_cs_fe $end
$var wire 1 1 spi_cs_re $end
$var wire 1 2 spi_mosi_filter $end
$var wire 1 3 spi_cs_filter $end
$var wire 1 4 spi_clk_filter $end
$var reg 256 5 DATA_OUT [255:0] $end
$var reg 1 $ DATA_READ $end
$var reg 1 # DATA_WRITE $end
$var reg 1 " SPI_MISO $end
$var reg 8 6 cmd [7:0] $end
$var reg 8 7 cmd_temp [0:7] $end
$var reg 256 8 data_in_temp [255:0] $end
$var reg 256 9 data_out_temp [255:0] $end
$var reg 1 : delay_data_read $end
$var reg 1 ; delay_data_write $end
$var reg 1 < hri1 $end
$var reg 1 = hri2 $end
$var reg 1 > hri3 $end
$var reg 1 ? hri4 $end
$var reg 12 @ i_cmd [11:0] $end
$var reg 12 A i_data_miso [11:0] $end
$var reg 12 B i_data_mosi [11:0] $end
$var reg 12 C i_wait [11:0] $end
$var reg 1 D spi_activ $end
$var reg 1 E spi_activ_data $end
$var reg 12 F spi_clk_ctr [11:0] $end
$var reg 1 G spi_cmd_read $end
$var reg 1 H spi_cmd_write $end
$scope module spi_inp_filter_clk $end
$var wire 1 & CLK $end
$var wire 1 ) IN $end
$var reg 1 4 OUT $end
$var reg 5 I ctr0 [4:0] $end
$var reg 5 J ctr1 [4:0] $end
$upscope $end
$scope module spi_inp_filter_cs $end
$var wire 1 & CLK $end
$var wire 1 * IN $end
$var reg 1 3 OUT $end
$var reg 5 K ctr0 [4:0] $end
$var reg 5 L ctr1 [4:0] $end
$upscope $end
$scope module spi_inp_filter_mosi $end
$var wire 1 & CLK $end
$var wire 1 + IN $end
$var reg 1 2 OUT $end
$var reg 5 M ctr0 [4:0] $end
$var reg 5 N ctr1 [4:0] $end
$upscope $end
$upscope $end
$upscope $end
$enddefinitions $end
#0
$dumpvars
b0 N
b0 M
b1 L
b0 K
b0 J
b0 I
0H
0G
b0 F
0E
0D
b0 C
b0 B
b0 A
b0 @
0?
0>
0=
0<
0;
0:
b0 9
b0 8
b0 7
b0 6
b0 5
04
03
02
01
00
0/
0.
0-
b100011001000000000000000000000000000000000000000000000000000000000000000000000000000000000000000000000000000000000000000000000000000000000000000000000000000000000000000000000000000000000000000000000000000000000000000000000000000000000000000100000001 ,
0+
1*
0)
0(
b100011001000000000000000000000000000000000000000000000000000000000000000000000000000000000000000000000000000000000000000000000000000000000000000000000000000000000000000000000000000000000000000000000000000000000000000000000000000000000000000100000001 '
1&
b0 %
0$
0#
0"
0!
$end
#10
0&
#20
b10 L
1&
#30
0&
#40
b11 L
1&
#50
0&
#60
b100 L
1&
#70
0&
#80
b101 L
1&
#90
0&
#100
1-
13
b0 L
1&
#110
0&
#120
11
1<
1&
#130
0&
#140
01
0;
1=
1&
#150
0&
0*
#160
b1 K
1&
#170
0&
#180
b10 K
1&
#190
0&
#200
b11 K
1&
#210
0&
1*
#220
b0 K
1&
#230
0&
#240
1&
#250
0&
0*
#260
b1 K
1&
#270
0&
1*
#280
b0 K
1&
#290
0&
#300
1&
#310
0&
#320
1&
#330
0&
#340
1&
#350
0&
#360
1&
#370
0&
#380
1&
#390
0&
#400
b1 K
1&
0*
#410
0&
#420
b10 K
1&
#430
0&
#440
b11 K
1&
#450
0&
#460
b100 K
1&
#470
0&
#480
b101 K
1&
#490
0&
#500
0-
03
b0 K
1&
#510
0&
#520
10
0<
1&
#530
0&
#540
00
1D
0=
1&
#550
0&
#560
1&
#570
0&
#580
1&
#590
0&
#600
1&
#610
0&
#620
1&
#630
0&
#640
1&
#650
0&
#660
1&
#670
0&
#680
1&
#690
0&
#700
b1 N
1&
1+
#710
0&
#720
b10 N
1&
#730
0&
#740
b11 N
1&
#750
0&
#760
b100 N
1&
#770
0&
#780
b101 N
1&
#790
0&
#800
b1 J
12
b0 N
1&
1)
#810
0&
#820
b10 J
1&
#830
0&
#840
b11 J
1&
#850
0&
#860
b100 J
1&
#870
0&
#880
b101 J
1&
#890
0&
#900
14
b0 J
1&
#910
0&
#920
1/
1>
1&
#930
0&
#940
0/
b1 @
b10000000 7
b1 F
1?
1&
#950
0&
#960
1&
#970
0&
#980
1&
#990
0&
#1000
1&
#1010
0&
#1020
1&
#1030
0&
#1040
1&
#1050
0&
#1060
1&
#1070
0&
#1080
1&
#1090
0&
#1100
1&
#1110
0&
#1120
1&
#1130
0&
#1140
1&
#1150
0&
#1160
1&
#1170
0&
#1180
1&
#1190
0&
#1200
b1 I
b1 M
1&
0)
0+
#1210
0&
#1220
b10 M
b10 I
1&
#1230
0&
#1240
b11 I
b11 M
1&
#1250
0&
#1260
b100 M
b100 I
1&
#1270
0&
#1280
b101 I
b101 M
1&
#1290
0&
#1300
02
b0 M
04
b0 I
1&
#1310
0&
#1320
1.
0>
1&
#1330
0&
#1340
0.
0?
1&
#1350
0&
#1360
1&
#1370
0&
#1380
1&
#1390
0&
#1400
1&
#1410
0&
#1420
1&
#1430
0&
#1440
1&
#1450
0&
#1460
1&
#1470
0&
#1480
1&
#1490
0&
#1500
b1 N
1&
1+
#1510
0&
#1520
b10 N
1&
#1530
0&
#1540
b11 N
1&
#1550
0&
#1560
b100 N
1&
#1570
0&
#1580
b101 N
1&
#1590
0&
#1600
b1 J
12
b0 N
1&
1)
#1610
0&
#1620
b10 J
1&
#1630
0&
#1640
b11 J
1&
#1650
0&
#1660
b100 J
1&
#1670
0&
#1680
b101 J
1&
#1690
0&
#1700
14
b0 J
1&
#1710
0&
#1720
1/
1>
1&
#1730
0&
#1740
0/
b10 @
b11000000 7
b10 F
1?
1&
#1750
0&
#1760
1&
#1770
0&
#1780
1&
#1790
0&
#1800
1&
#1810
0&
#1820
1&
#1830
0&
#1840
1&
#1850
0&
#1860
1&
#1870
0&
#1880
1&
#1890
0&
#1900
1&
#1910
0&
#1920
1&
#1930
0&
#1940
1&
#1950
0&
#1960
1&
#1970
0&
#1980
1&
#1990
0&
#2000
b1 I
b1 M
1&
0)
0+
#2010
0&
#2020
b10 M
b10 I
1&
#2030
0&
#2040
b11 I
b11 M
1&
#2050
0&
#2060
b100 M
b100 I
1&
#2070
0&
#2080
b101 I
b101 M
1&
#2090
0&
#2100
02
b0 M
04
b0 I
1&
#2110
0&
#2120
1.
0>
1&
#2130
0&
#2140
0.
0?
1&
#2150
0&
#2160
1&
#2170
0&
#2180
1&
#2190
0&
#2200
1&
#2210
0&
#2220
1&
#2230
0&
#2240
1&
#2250
0&
#2260
1&
#2270
0&
#2280
1&
#2290
0&
#2300
b1 N
1&
1+
#2310
0&
#2320
b10 N
1&
#2330
0&
#2340
b11 N
1&
#2350
0&
#2360
b100 N
1&
#2370
0&
#2380
b101 N
1&
#2390
0&
#2400
b1 J
12
b0 N
1&
1)
#2410
0&
#2420
b10 J
1&
#2430
0&
#2440
b11 J
1&
#2450
0&
#2460
b100 J
1&
#2470
0&
#2480
b101 J
1&
#2490
0&
#2500
14
b0 J
1&
#2510
0&
#2520
1/
1>
1&
#2530
0&
#2540
0/
b11 @
b11100000 7
b11 F
1?
1&
#2550
0&
#2560
1&
#2570
0&
#2580
1&
#2590
0&
#2600
1&
#2610
0&
#2620
1&
#2630
0&
#2640
1&
#2650
0&
#2660
1&
#2670
0&
#2680
1&
#2690
0&
#2700
1&
#2710
0&
#2720
1&
#2730
0&
#2740
1&
#2750
0&
#2760
1&
#2770
0&
#2780
1&
#2790
0&
#2800
b1 I
b1 M
1&
0)
0+
#2810
0&
#2820
b10 M
b10 I
1&
#2830
0&
#2840
b11 I
b11 M
1&
#2850
0&
#2860
b100 M
b100 I
1&
#2870
0&
#2880
b101 I
b101 M
1&
#2890
0&
#2900
02
b0 M
04
b0 I
1&
#2910
0&
#2920
1.
0>
1&
#2930
0&
#2940
0.
0?
1&
#2950
0&
#2960
1&
#2970
0&
#2980
1&
#2990
0&
#3000
1&
#3010
0&
#3020
1&
#3030
0&
#3040
1&
#3050
0&
#3060
1&
#3070
0&
#3080
1&
#3090
0&
#3100
1&
#3110
0&
#3120
1&
#3130
0&
#3140
1&
#3150
0&
#3160
1&
#3170
0&
#3180
1&
#3190
0&
#3200
b1 J
1&
1)
#3210
0&
#3220
b10 J
1&
#3230
0&
#3240
b11 J
1&
#3250
0&
#3260
b100 J
1&
#3270
0&
#3280
b101 J
1&
#3290
0&
#3300
14
b0 J
1&
#3310
0&
#3320
1/
1>
1&
#3330
0&
#3340
0/
b100 @
b100 F
1?
1&
#3350
0&
#3360
1&
#3370
0&
#3380
1&
#3390
0&
#3400
1&
#3410
0&
#3420
1&
#3430
0&
#3440
1&
#3450
0&
#3460
1&
#3470
0&
#3480
1&
#3490
0&
#3500
1&
#3510
0&
#3520
1&
#3530
0&
#3540
1&
#3550
0&
#3560
1&
#3570
0&
#3580
1&
#3590
0&
#3600
b1 I
1&
0)
#3610
0&
#3620
b10 I
1&
#3630
0&
#3640
b11 I
1&
#3650
0&
#3660
b100 I
1&
#3670
0&
#3680
b101 I
1&
#3690
0&
#3700
04
b0 I
1&
#3710
0&
#3720
1.
0>
1&
#3730
0&
#3740
0.
0?
1&
#3750
0&
#3760
1&
#3770
0&
#3780
1&
#3790
0&
#3800
1&
#3810
0&
#3820
1&
#3830
0&
#3840
1&
#3850
0&
#3860
1&
#3870
0&
#3880
1&
#3890
0&
#3900
1&
#3910
0&
#3920
1&
#3930
0&
#3940
1&
#3950
0&
#3960
1&
#3970
0&
#3980
1&
#3990
0&
#4000
b1 J
1&
1)
#4010
0&
#4020
b10 J
1&
#4030
0&
#4040
b11 J
1&
#4050
0&
#4060
b100 J
1&
#4070
0&
#4080
b101 J
1&
#4090
0&
#4100
14
b0 J
1&
#4110
0&
#4120
1/
1>
1&
#4130
0&
#4140
0/
b101 @
b101 F
1?
1&
#4150
0&
#4160
1&
#4170
0&
#4180
1&
#4190
0&
#4200
1&
#4210
0&
#4220
1&
#4230
0&
#4240
1&
#4250
0&
#4260
1&
#4270
0&
#4280
1&
#4290
0&
#4300
1&
#4310
0&
#4320
1&
#4330
0&
#4340
1&
#4350
0&
#4360
1&
#4370
0&
#4380
1&
#4390
0&
#4400
b1 I
1&
0)
#4410
0&
#4420
b10 I
1&
#4430
0&
#4440
b11 I
1&
#4450
0&
#4460
b100 I
1&
#4470
0&
#4480
b101 I
1&
#4490
0&
#4500
04
b0 I
1&
#4510
0&
#4520
1.
0>
1&
#4530
0&
#4540
0.
0?
1&
#4550
0&
#4560
1&
#4570
0&
#4580
1&
#4590
0&
#4600
1&
#4610
0&
#4620
1&
#4630
0&
#4640
1&
#4650
0&
#4660
1&
#4670
0&
#4680
1&
#4690
0&
#4700
1&
#4710
0&
#4720
1&
#4730
0&
#4740
1&
#4750
0&
#4760
1&
#4770
0&
#4780
1&
#4790
0&
#4800
b1 J
1&
1)
#4810
0&
#4820
b10 J
1&
#4830
0&
#4840
b11 J
1&
#4850
0&
#4860
b100 J
1&
#4870
0&
#4880
b101 J
1&
#4890
0&
#4900
14
b0 J
1&
#4910
0&
#4920
1/
1>
1&
#4930
0&
#4940
0/
b110 @
b110 F
1?
1&
#4950
0&
#4960
1&
#4970
0&
#4980
1&
#4990
0&
#5000
1&
#5010
0&
#5020
1&
#5030
0&
#5040
1&
#5050
0&
#5060
1&
#5070
0&
#5080
1&
#5090
0&
#5100
1&
#5110
0&
#5120
1&
#5130
0&
#5140
1&
#5150
0&
#5160
1&
#5170
0&
#5180
1&
#5190
0&
#5200
b1 I
1&
0)
#5210
0&
#5220
b10 I
1&
#5230
0&
#5240
b11 I
1&
#5250
0&
#5260
b100 I
1&
#5270
0&
#5280
b101 I
1&
#5290
0&
#5300
04
b0 I
1&
#5310
0&
#5320
1.
0>
1&
#5330
0&
#5340
0.
0?
1&
#5350
0&
#5360
1&
#5370
0&
#5380
1&
#5390
0&
#5400
1&
#5410
0&
#5420
1&
#5430
0&
#5440
1&
#5450
0&
#5460
1&
#5470
0&
#5480
1&
#5490
0&
#5500
1&
#5510
0&
#5520
1&
#5530
0&
#5540
1&
#5550
0&
#5560
1&
#5570
0&
#5580
1&
#5590
0&
#5600
b1 J
1&
1)
#5610
0&
#5620
b10 J
1&
#5630
0&
#5640
b11 J
1&
#5650
0&
#5660
b100 J
1&
#5670
0&
#5680
b101 J
1&
#5690
0&
#5700
14
b0 J
1&
#5710
0&
#5720
1/
1>
1&
#5730
0&
#5740
0/
b111 @
b111 F
1?
1&
#5750
0&
#5760
1&
#5770
0&
#5780
1&
#5790
0&
#5800
1&
#5810
0&
#5820
1&
#5830
0&
#5840
1&
#5850
0&
#5860
1&
#5870
0&
#5880
1&
#5890
0&
#5900
1&
#5910
0&
#5920
1&
#5930
0&
#5940
1&
#5950
0&
#5960
1&
#5970
0&
#5980
1&
#5990
0&
#6000
b1 I
1&
0)
#6010
0&
#6020
b10 I
1&
#6030
0&
#6040
b11 I
1&
#6050
0&
#6060
b100 I
1&
#6070
0&
#6080
b101 I
1&
#6090
0&
#6100
04
b0 I
1&
#6110
0&
#6120
1.
0>
1&
#6130
0&
#6140
0.
0?
1&
#6150
0&
#6160
1&
#6170
0&
#6180
1&
#6190
0&
#6200
1&
#6210
0&
#6220
1&
#6230
0&
#6240
1&
#6250
0&
#6260
1&
#6270
0&
#6280
1&
#6290
0&
#6300
1&
#6310
0&
#6320
1&
#6330
0&
#6340
1&
#6350
0&
#6360
1&
#6370
0&
#6380
1&
#6390
0&
#6400
b1 J
1&
1)
#6410
0&
#6420
b10 J
1&
#6430
0&
#6440
b11 J
1&
#6450
0&
#6460
b100 J
1&
#6470
0&
#6480
b101 J
1&
#6490
0&
#6500
14
b0 J
1&
#6510
0&
#6520
1/
1>
1&
#6530
0&
#6540
0/
b1000 @
b1000 F
1?
1&
#6550
0&
#6560
1&
#6570
0&
#6580
1&
#6590
0&
#6600
1&
#6610
0&
#6620
1&
#6630
0&
#6640
1&
#6650
0&
#6660
1&
#6670
0&
#6680
1&
#6690
0&
#6700
1&
#6710
0&
#6720
1&
#6730
0&
#6740
1&
#6750
0&
#6760
1&
#6770
0&
#6780
1&
#6790
0&
#6800
b1 I
1&
0)
#6810
0&
#6820
b10 I
1&
#6830
0&
#6840
b11 I
1&
#6850
0&
#6860
b100 I
1&
#6870
0&
#6880
b101 I
1&
#6890
0&
#6900
04
b0 I
1&
#6910
0&
#6920
1.
0>
1&
#6930
0&
#6940
0.
0?
1&
#6950
0&
#6960
1&
#6970
0&
#6980
1&
#6990
0&
#7000
1&
#7010
0&
#7020
1&
#7030
0&
#7040
1&
#7050
0&
#7060
1&
#7070
0&
#7080
1&
#7090
0&
#7100
1&
#7110
0&
#7120
1&
#7130
0&
#7140
1&
#7150
0&
#7160
1&
#7170
0&
#7180
1&
#7190
0&
#7200
b1 J
1&
1)
#7210
0&
#7220
b10 J
1&
#7230
0&
#7240
b11 J
1&
#7250
0&
#7260
b100 J
1&
#7270
0&
#7280
b101 J
1&
#7290
0&
#7300
14
b0 J
1&
#7310
0&
#7320
1/
1>
1&
#7330
0&
#7340
0/
b1 C
b11100000 6
b1001 F
1?
1&
#7350
0&
#7360
1&
#7370
0&
#7380
1&
#7390
0&
#7400
1&
#7410
0&
#7420
1&
#7430
0&
#7440
1&
#7450
0&
#7460
1&
#7470
0&
#7480
1&
#7490
0&
#7500
1&
#7510
0&
#7520
1&
#7530
0&
#7540
1&
#7550
0&
#7560
1&
#7570
0&
#7580
1&
#7590
0&
#7600
b1 I
1&
0)
#7610
0&
#7620
b10 I
1&
#7630
0&
#7640
b11 I
1&
#7650
0&
#7660
b100 I
1&
#7670
0&
#7680
b101 I
1&
#7690
0&
#7700
04
b0 I
1&
#7710
0&
#7720
1.
0>
1&
#7730
0&
#7740
0.
0?
1&
#7750
0&
#7760
1&
#7770
0&
#7780
1&
#7790
0&
#7800
1&
#7810
0&
#7820
1&
#7830
0&
#7840
1&
#7850
0&
#7860
1&
#7870
0&
#7880
1&
#7890
0&
#7900
1&
#7910
0&
#7920
1&
#7930
0&
#7940
1&
#7950
0&
#7960
1&
#7970
0&
#7980
1&
#7990
0&
#8000
b1 J
1&
1)
#8010
0&
#8020
b10 J
1&
#8030
0&
#8040
b11 J
1&
#8050
0&
#8060
b100 J
1&
#8070
0&
#8080
b101 J
1&
#8090
0&
#8100
14
b0 J
1&
#8110
0&
#8120
1/
1>
1&
#8130
0&
#8140
0/
b10 C
b1010 F
1?
1&
#8150
0&
#8160
1&
#8170
0&
#8180
1&
#8190
0&
#8200
1&
#8210
0&
#8220
1&
#8230
0&
#8240
1&
#8250
0&
#8260
1&
#8270
0&
#8280
1&
#8290
0&
#8300
1&
#8310
0&
#8320
1&
#8330
0&
#8340
1&
#8350
0&
#8360
1&
#8370
0&
#8380
1&
#8390
0&
#8400
b1 I
1&
0)
#8410
0&
#8420
b10 I
1&
#8430
0&
#8440
b11 I
1&
#8450
0&
#8460
b100 I
1&
#8470
0&
#8480
b101 I
1&
#8490
0&
#8500
04
b0 I
1&
#8510
0&
#8520
1.
0>
1&
#8530
0&
#8540
0.
0?
1&
#8550
0&
#8560
1&
#8570
0&
#8580
1&
#8590
0&
#8600
1&
#8610
0&
#8620
1&
#8630
0&
#8640
1&
#8650
0&
#8660
1&
#8670
0&
#8680
1&
#8690
0&
#8700
1&
#8710
0&
#8720
1&
#8730
0&
#8740
1&
#8750
0&
#8760
1&
#8770
0&
#8780
1&
#8790
0&
#8800
b1 J
1&
1)
#8810
0&
#8820
b10 J
1&
#8830
0&
#8840
b11 J
1&
#8850
0&
#8860
b100 J
1&
#8870
0&
#8880
b101 J
1&
#8890
0&
#8900
14
b0 J
1&
#8910
0&
#8920
1/
1>
1&
#8930
0&
#8940
0/
1!
b11 C
1H
1G
1:
b1011 F
1?
1&
#8950
0&
#8960
0:
1$
1&
#8970
0&
#8980
0$
1&
#8990
0&
#9000
1&
#9010
0&
#9020
1&
#9030
0&
#9040
1&
#9050
0&
#9060
1&
#9070
0&
#9080
1&
#9090
0&
#9100
1&
#9110
0&
#9120
1&
#9130
0&
#9140
1&
#9150
0&
#9160
1&
#9170
0&
#9180
1&
#9190
0&
#9200
b1 I
1&
0)
#9210
0&
#9220
b10 I
1&
#9230
0&
#9240
b11 I
1&
#9250
0&
#9260
b100 I
1&
#9270
0&
#9280
b101 I
1&
#9290
0&
#9300
04
b0 I
1&
#9310
0&
#9320
1.
0>
1&
#9330
0&
#9340
0.
0?
1&
#9350
0&
#9360
1&
#9370
0&
#9380
1&
#9390
0&
#9400
1&
#9410
0&
#9420
1&
#9430
0&
#9440
1&
#9450
0&
#9460
1&
#9470
0&
#9480
1&
#9490
0&
#9500
1&
#9510
0&
#9520
1&
#9530
0&
#9540
1&
#9550
0&
#9560
1&
#9570
0&
#9580
1&
#9590
0&
#9600
b1 J
1&
1)
#9610
0&
#9620
b10 J
1&
#9630
0&
#9640
b11 J
1&
#9650
0&
#9660
b100 J
1&
#9670
0&
#9680
b101 J
1&
#9690
0&
#9700
14
b0 J
1&
#9710
0&
#9720
1/
1>
1&
#9730
0&
#9740
0/
b100 C
b1100 F
1?
1&
#9750
0&
#9760
1&
#9770
0&
#9780
1&
#9790
0&
#9800
1&
#9810
0&
#9820
1&
#9830
0&
#9840
1&
#9850
0&
#9860
1&
#9870
0&
#9880
1&
#9890
0&
#9900
1&
#9910
0&
#9920
1&
#9930
0&
#9940
1&
#9950
0&
#9960
1&
#9970
0&
#9980
1&
#9990
0&
#10000
b1 I
1&
0)
#10010
0&
#10020
b10 I
1&
#10030
0&
#10040
b11 I
1&
#10050
0&
#10060
b100 I
1&
#10070
0&
#10080
b101 I
1&
#10090
0&
#10100
04
b0 I
1&
#10110
0&
#10120
1.
0>
1&
#10130
0&
#10140
0.
0?
1&
#10150
0&
#10160
1&
#10170
0&
#10180
1&
#10190
0&
#10200
1&
#10210
0&
#10220
1&
#10230
0&
#10240
1&
#10250
0&
#10260
1&
#10270
0&
#10280
1&
#10290
0&
#10300
1&
#10310
0&
#10320
1&
#10330
0&
#10340
1&
#10350
0&
#10360
1&
#10370
0&
#10380
1&
#10390
0&
#10400
b1 J
1&
1)
#10410
0&
#10420
b10 J
1&
#10430
0&
#10440
b11 J
1&
#10450
0&
#10460
b100 J
1&
#10470
0&
#10480
b101 J
1&
#10490
0&
#10500
14
b0 J
1&
#10510
0&
#10520
1/
1>
1&
#10530
0&
#10540
0/
b101 C
b1101 F
1?
1&
#10550
0&
#10560
1&
#10570
0&
#10580
1&
#10590
0&
#10600
1&
#10610
0&
#10620
1&
#10630
0&
#10640
1&
#10650
0&
#10660
1&
#10670
0&
#10680
1&
#10690
0&
#10700
1&
#10710
0&
#10720
1&
#10730
0&
#10740
1&
#10750
0&
#10760
1&
#10770
0&
#10780
1&
#10790
0&
#10800
b1 I
1&
0)
#10810
0&
#10820
b10 I
1&
#10830
0&
#10840
b11 I
1&
#10850
0&
#10860
b100 I
1&
#10870
0&
#10880
b101 I
1&
#10890
0&
#10900
04
b0 I
1&
#10910
0&
#10920
1.
0>
1&
#10930
0&
#10940
0.
0?
1&
#10950
0&
#10960
1&
#10970
0&
#10980
1&
#10990
0&
#11000
1&
#11010
0&
#11020
1&
#11030
0&
#11040
1&
#11050
0&
#11060
1&
#11070
0&
#11080
1&
#11090
0&
#11100
1&
#11110
0&
#11120
1&
#11130
0&
#11140
1&
#11150
0&
#11160
1&
#11170
0&
#11180
1&
#11190
0&
#11200
b1 J
1&
1)
#11210
0&
#11220
b10 J
1&
#11230
0&
#11240
b11 J
1&
#11250
0&
#11260
b100 J
1&
#11270
0&
#11280
b101 J
1&
#11290
0&
#11300
14
b0 J
1&
#11310
0&
#11320
1/
1>
1&
#11330
0&
#11340
0/
b110 C
b100011001000000000000000000000000000000000000000000000000000000000000000000000000000000000000000000000000000000000000000000000000000000000000000000000000000000000000000000000000000000000000000000000000000000000000000000000000000000000000000100000001 8
b1110 F
1?
1&
#11350
0&
#11360
1&
#11370
0&
#11380
1&
#11390
0&
#11400
1&
#11410
0&
#11420
1&
#11430
0&
#11440
1&
#11450
0&
#11460
1&
#11470
0&
#11480
1&
#11490
0&
#11500
1&
#11510
0&
#11520
1&
#11530
0&
#11540
1&
#11550
0&
#11560
1&
#11570
0&
#11580
1&
#11590
0&
#11600
b1 I
1&
0)
#11610
0&
#11620
b10 I
1&
#11630
0&
#11640
b11 I
1&
#11650
0&
#11660
b100 I
1&
#11670
0&
#11680
b101 I
1&
#11690
0&
#11700
04
b0 I
1&
#11710
0&
#11720
1.
0>
1&
#11730
0&
#11740
0.
0?
1&
#11750
0&
#11760
1&
#11770
0&
#11780
1&
#11790
0&
#11800
1&
#11810
0&
#11820
1&
#11830
0&
#11840
1&
#11850
0&
#11860
1&
#11870
0&
#11880
1&
#11890
0&
#11900
1&
#11910
0&
#11920
1&
#11930
0&
#11940
1&
#11950
0&
#11960
1&
#11970
0&
#11980
1&
#11990
0&
#12000
b1 J
1&
1)
#12010
0&
#12020
b10 J
1&
#12030
0&
#12040
b11 J
1&
#12050
0&
#12060
b100 J
1&
#12070
0&
#12080
b101 J
1&
#12090
0&
#12100
14
b0 J
1&
#12110
0&
#12120
1/
1>
1&
#12130
0&
#12140
0/
b111 C
b1111 F
1?
1&
#12150
0&
#12160
1&
#12170
0&
#12180
1&
#12190
0&
#12200
1&
#12210
0&
#12220
1&
#12230
0&
#12240
1&
#12250
0&
#12260
1&
#12270
0&
#12280
1&
#12290
0&
#12300
1&
#12310
0&
#12320
1&
#12330
0&
#12340
1&
#12350
0&
#12360
1&
#12370
0&
#12380
1&
#12390
0&
#12400
b1 I
1&
0)
#12410
0&
#12420
b10 I
1&
#12430
0&
#12440
b11 I
1&
#12450
0&
#12460
b100 I
1&
#12470
0&
#12480
b101 I
1&
#12490
0&
#12500
04
b0 I
1&
#12510
0&
#12520
1.
0>
1&
#12530
0&
#12540
0.
0?
1&
#12550
0&
#12560
1&
#12570
0&
#12580
1&
#12590
0&
#12600
1&
#12610
0&
#12620
1&
#12630
0&
#12640
1&
#12650
0&
#12660
1&
#12670
0&
#12680
1&
#12690
0&
#12700
1&
#12710
0&
#12720
1&
#12730
0&
#12740
1&
#12750
0&
#12760
1&
#12770
0&
#12780
1&
#12790
0&
#12800
b1 J
1&
1)
#12810
0&
#12820
b10 J
1&
#12830
0&
#12840
b11 J
1&
#12850
0&
#12860
b100 J
1&
#12870
0&
#12880
b101 J
1&
#12890
0&
#12900
14
b0 J
1&
#12910
0&
#12920
1/
1>
1&
#12930
0&
#12940
0/
b1000 C
1E
b10000 F
1?
1&
#12950
0&
#12960
1&
#12970
0&
#12980
1&
#12990
0&
#13000
1&
#13010
0&
#13020
1&
#13030
0&
#13040
1&
#13050
0&
#13060
1&
#13070
0&
#13080
1&
#13090
0&
#13100
1&
#13110
0&
#13120
1&
#13130
0&
#13140
1&
#13150
0&
#13160
1&
#13170
0&
#13180
1&
#13190
0&
#13200
b1 I
1&
0)
#13210
0&
#13220
b10 I
1&
#13230
0&
#13240
b11 I
1&
#13250
0&
#13260
b100 I
1&
#13270
0&
#13280
b101 I
1&
#13290
0&
#13300
04
b0 I
1&
#13310
0&
#13320
1.
0>
1&
#13330
0&
#13340
0.
b1 B
1"
0?
1&
#13350
0&
#13360
1&
#13370
0&
#13380
1&
#13390
0&
#13400
1&
#13410
0&
#13420
1&
#13430
0&
#13440
1&
#13450
0&
#13460
1&
#13470
0&
#13480
1&
#13490
0&
#13500
b1 N
1&
1+
#13510
0&
#13520
b10 N
1&
#13530
0&
#13540
b11 N
1&
#13550
0&
#13560
b100 N
1&
#13570
0&
#13580
b101 N
1&
#13590
0&
#13600
b1 J
12
b0 N
1&
1)
#13610
0&
#13620
b10 J
1&
#13630
0&
#13640
b11 J
1&
#13650
0&
#13660
b100 J
1&
#13670
0&
#13680
b101 J
1&
#13690
0&
#13700
14
b0 J
1&
#13710
0&
#13720
1/
1>
1&
#13730
0&
#13740
0/
b1 A
b1 9
b10001 F
1?
1&
#13750
0&
#13760
1&
#13770
0&
#13780
1&
#13790
0&
#13800
1&
#13810
0&
#13820
1&
#13830
0&
#13840
1&
#13850
0&
#13860
1&
#13870
0&
#13880
1&
#13890
0&
#13900
1&
#13910
0&
#13920
1&
#13930
0&
#13940
1&
#13950
0&
#13960
1&
#13970
0&
#13980
1&
#13990
0&
#14000
b1 I
b1 M
1&
0)
0+
#14010
0&
#14020
b10 M
b10 I
1&
#14030
0&
#14040
b11 I
b11 M
1&
#14050
0&
#14060
b100 M
b100 I
1&
#14070
0&
#14080
b101 I
b101 M
1&
#14090
0&
#14100
02
b0 M
04
b0 I
1&
#14110
0&
#14120
1.
0>
1&
#14130
0&
#14140
0.
b10 B
0"
0?
1&
#14150
0&
#14160
1&
#14170
0&
#14180
1&
#14190
0&
#14200
1&
#14210
0&
#14220
1&
#14230
0&
#14240
1&
#14250
0&
#14260
1&
#14270
0&
#14280
1&
#14290
0&
#14300
1&
#14310
0&
#14320
1&
#14330
0&
#14340
1&
#14350
0&
#14360
1&
#14370
0&
#14380
1&
#14390
0&
#14400
b1 J
1&
1)
#14410
0&
#14420
b10 J
1&
#14430
0&
#14440
b11 J
1&
#14450
0&
#14460
b100 J
1&
#14470
0&
#14480
b101 J
1&
#14490
0&
#14500
14
b0 J
1&
#14510
0&
#14520
1/
1>
1&
#14530
0&
#14540
0/
b10 A
b10010 F
1?
1&
#14550
0&
#14560
1&
#14570
0&
#14580
1&
#14590
0&
#14600
1&
#14610
0&
#14620
1&
#14630
0&
#14640
1&
#14650
0&
#14660
1&
#14670
0&
#14680
1&
#14690
0&
#14700
1&
#14710
0&
#14720
1&
#14730
0&
#14740
1&
#14750
0&
#14760
1&
#14770
0&
#14780
1&
#14790
0&
#14800
b1 I
1&
0)
#14810
0&
#14820
b10 I
1&
#14830
0&
#14840
b11 I
1&
#14850
0&
#14860
b100 I
1&
#14870
0&
#14880
b101 I
1&
#14890
0&
#14900
04
b0 I
1&
#14910
0&
#14920
1.
0>
1&
#14930
0&
#14940
0.
b11 B
0?
1&
#14950
0&
#14960
1&
#14970
0&
#14980
1&
#14990
0&
#15000
1&
#15010
0&
#15020
1&
#15030
0&
#15040
1&
#15050
0&
#15060
1&
#15070
0&
#15080
1&
#15090
0&
#15100
1&
#15110
0&
#15120
1&
#15130
0&
#15140
1&
#15150
0&
#15160
1&
#15170
0&
#15180
1&
#15190
0&
#15200
b1 J
1&
1)
#15210
0&
#15220
b10 J
1&
#15230
0&
#15240
b11 J
1&
#15250
0&
#15260
b100 J
1&
#15270
0&
#15280
b101 J
1&
#15290
0&
#15300
14
b0 J
1&
#15310
0&
#15320
1/
1>
1&
#15330
0&
#15340
0/
b11 A
b10011 F
1?
1&
#15350
0&
#15360
1&
#15370
0&
#15380
1&
#15390
0&
#15400
1&
#15410
0&
#15420
1&
#15430
0&
#15440
1&
#15450
0&
#15460
1&
#15470
0&
#15480
1&
#15490
0&
#15500
1&
