src/AC_MOTOR/vcd/ac_motor_sine_tb.vcd
$date
	Sun Feb  3 17:54:35 2019
$end
$version
	Icarus Verilog
$end
$timescale
	1ns
$end
$scope module AC_MOTOR_SINE_TB $end
$var wire 24 ! sine3 [23:0] $end
$var wire 24 " sine2 [23:0] $end
$var wire 24 # sine1 [23:0] $end
$var reg 13 $ amplitude [12:0] $end
$var reg 1 % clk $end
$var reg 12 & frequency [11:0] $end
$var reg 1 ' lock $end
$scope module sine $end
$var wire 13 ( AMPLITUDE [12:0] $end
$var wire 1 % CLK $end
$var wire 12 ) FREQUENCY [11:0] $end
$var wire 1 ' LOCK $end
$var reg 24 * SINE_VAL_1 [23:0] $end
$var reg 24 + SINE_VAL_2 [23:0] $end
$var reg 24 , SINE_VAL_3 [23:0] $end
$var reg 13 - ampl_int [12:0] $end
$var reg 13 . clock_div [12:0] $end
$var reg 12 / freq_int [11:0] $end
$var reg 9 0 mem_index_1 [8:0] $end
$var reg 9 1 mem_index_2 [8:0] $end
$var reg 9 2 mem_index_3 [8:0] $end
$var reg 12 3 signed_sine_1 [11:0] $end
$var reg 12 4 signed_sine_2 [11:0] $end
$var reg 12 5 signed_sine_3 [11:0] $end
$var reg 14 6 sine_index_1 [13:0] $end
$var reg 14 7 sine_index_2 [13:0] $end
$var reg 14 8 sine_index_3 [13:0] $end
$var reg 3 9 sine_sign_1 [2:0] $end
$var reg 3 : sine_sign_2 [2:0] $end
$var reg 3 ; sine_sign_3 [2:0] $end
$var reg 12 < unsigned_sine_1 [11:0] $end
$var reg 12 = unsigned_sine_2 [11:0] $end
$var reg 12 > unsigned_sine_3 [11:0] $end
$upscope $end
$upscope $end
$enddefinitions $end
#0
$dumpvars
bx >
bx =
bx <
b111 ;
b1 :
b1 9
b10101010101 8
b1010101011 7
b1 6
bx 5
bx 4
bx 3
b101010110 2
b101010100 1
b0 0
b0 /
b0 .
b100000000000 -
bx ,
bx +
bx *
b0 )
b100000000000 (
0'
b0 &
1%
b100000000000 $
bx #
bx "
bx !
$end
#10
0%
#20
b11011110001 >
b11011101011 =
b0 <
b10101010110 8
b1010101100 7
b10 6
b101010111 2
b101010011 1
b1 0
1%
#30
0%
#40
b100100001111 5
b11011101011 4
b0 3
b11011110100 >
b11011101000 =
b110 <
b10101010111 8
b1010101101 7
b11 6
b101011000 2
b101010010 1
b10 0
1%
#50
0%
#60
b110010000111100000000000 !
b110010000111100000000000 ,
b1101110101100000000000 "
b1101110101100000000000 +
b0 #
b0 *
b100100001100 5
b11011101000 4
b110 3
b11011111000 >
b11011100101 =
b1100 <
b10101011000 8
b1010101110 7
b100 6
b101011001 2
b101010001 1
b11 0
1%
#70
0%
#80
b110010000110000000000000 !
b110010000110000000000000 ,
b1101110100000000000000 "
b1101110100000000000000 +
b11000000000000 #
b11000000000000 *
b100100001000 5
b11011100101 4
b1100 3
b11011111011 >
b11011100001 =
b10010 <
b10101011001 8
b1010101111 7
b101 6
b101011010 2
b101010000 1
b100 0
1%
#90
0%
#100
b110010000100000000000000 !
b110010000100000000000000 ,
b1101110010100000000000 "
b1101110010100000000000 +
b110000000000000 #
b110000000000000 *
b100100000101 5
b11011100001 4
b10010 3
b11011111110 >
b11011011110 =
b11001 <
b10101011010 8
b1010110000 7
b110 6
b101011011 2
b101001111 1
b101 0
1%
#110
0%
#120
b110010000010100000000000 !
b110010000010100000000000 ,
b1101110000100000000000 "
b1101110000100000000000 +
b1001000000000000 #
b1001000000000000 *
b100100000010 5
b11011011110 4
b11001 3
b11100000001 >
b11011011011 =
b11111 <
b10101011011 8
b1010110001 7
b111 6
b101011100 2
b101001110 1
b110 0
1%
#130
0%
#140
b110010000001000000000000 !
b110010000001000000000000 ,
b1101101111000000000000 "
b1101101111000000000000 +
b1100100000000000 #
b1100100000000000 *
b100011111111 5
b11011011011 4
b11111 3
b11100000100 >
b11011011000 =
b100101 <
b10101011100 8
b1010110010 7
b1000 6
b101011101 2
b101001101 1
b111 0
1%
#150
0%
#160
b110001111111100000000000 !
b110001111111100000000000 ,
b1101101101100000000000 "
b1101101101100000000000 +
b1111100000000000 #
b1111100000000000 *
b100011111100 5
b11011011000 4
b100101 3
b11100000111 >
b11011010100 =
b101100 <
b10101011101 8
b1010110011 7
b1001 6
b101011110 2
b101001100 1
b1000 0
1%
#170
0%
#180
b110001111110000000000000 !
b110001111110000000000000 ,
b1101101100000000000000 "
b1101101100000000000000 +
b10010100000000000 #
b10010100000000000 *
b100011111001 5
b11011010100 4
b101100 3
b11100001010 >
b11011010001 =
b110010 <
b10101011110 8
b1010110100 7
b1010 6
b101011111 2
b101001011 1
b1001 0
1%
#190
0%
#200
b110001111100100000000000 !
b110001111100100000000000 ,
b1101101010000000000000 "
b1101101010000000000000 +
b10110000000000000 #
b10110000000000000 *
b100011110110 5
b11011010001 4
b110010 3
b11100001101 >
b11011001110 =
b111000 <
b10101011111 8
b1010110101 7
b1011 6
b101100000 2
b101001010 1
b1010 0
1%
#210
0%
#220
b110001111011000000000000 !
b110001111011000000000000 ,
b1101101000100000000000 "
b1101101000100000000000 +
b11001000000000000 #
b11001000000000000 *
b100011110011 5
b11011001110 4
b111000 3
b11100010000 >
b11011001011 =
b111110 <
b10101100000 8
b1010110110 7
b1100 6
b101100001 2
b101001001 1
b1011 0
1%
#230
0%
#240
b110001111001100000000000 !
b110001111001100000000000 ,
b1101100111000000000000 "
b1101100111000000000000 +
b11100000000000000 #
b11100000000000000 *
b100011110000 5
b11011001011 4
b111110 3
b11100010011 >
b11011000111 =
b1000101 <
b10101100001 8
b1010110111 7
b1101 6
b101100010 2
b101001000 1
b1100 0
1%
#250
0%
#260
b110001111000000000000000 !
b110001111000000000000000 ,
b1101100101100000000000 "
b1101100101100000000000 +
b11111000000000000 #
b11111000000000000 *
b100011101101 5
b11011000111 4
b1000101 3
b11100010110 >
b11011000100 =
b1001011 <
b10101100010 8
b1010111000 7
b1110 6
b101100011 2
b101000111 1
b1101 0
1%
#270
0%
#280
b110001110110100000000000 !
b110001110110100000000000 ,
b1101100011100000000000 "
b1101100011100000000000 +
b100010100000000000 #
b100010100000000000 *
b100011101010 5
b11011000100 4
b1001011 3
b11100011001 >
b11011000001 =
b1010001 <
b10101100011 8
b1010111001 7
b1111 6
b101100100 2
b101000110 1
b1110 0
1%
#290
0%
#300
b110001110101000000000000 !
b110001110101000000000000 ,
b1101100010000000000000 "
b1101100010000000000000 +
b100101100000000000 #
b100101100000000000 *
b100011100111 5
b11011000001 4
b1010001 3
b11100011011 >
b11010111101 =
b1011000 <
b10101100100 8
b1010111010 7
b10000 6
b101100101 2
b101000101 1
b1111 0
1%
#310
0%
#320
b110001110011100000000000 !
b110001110011100000000000 ,
b1101100000100000000000 "
b1101100000100000000000 +
b101000100000000000 #
b101000100000000000 *
b100011100101 5
b11010111101 4
b1011000 3
b11100011110 >
b11010111010 =
b1011110 <
b10101100101 8
b1010111011 7
b10001 6
b101100110 2
b101000100 1
b10000 0
1%
#330
0%
#340
b110001110010100000000000 !
b110001110010100000000000 ,
b1101011110100000000000 "
b1101011110100000000000 +
b101100000000000000 #
b101100000000000000 *
b100011100010 5
b11010111010 4
b1011110 3
b11100100001 >
b11010110110 =
b1100100 <
b10101100110 8
b1010111100 7
b10010 6
b101100111 2
b101000011 1
b10001 0
1%
#350
0%
#360
b110001110001000000000000 !
b110001110001000000000000 ,
b1101011101000000000000 "
b1101011101000000000000 +
b101111000000000000 #
b101111000000000000 *
b100011011111 5
b11010110110 4
b1100100 3
b11100100100 >
b11010110011 =
b1101010 <
b10101100111 8
b1010111101 7
b10011 6
b101101000 2
b101000010 1
b10010 0
1%
#370
0%
#380
b110001101111100000000000 !
b110001101111100000000000 ,
b1101011011000000000000 "
b1101011011000000000000 +
b110010000000000000 #
b110010000000000000 *
b100011011100 5
b11010110011 4
b1101010 3
b11100100111 >
b11010101111 =
b1110001 <
b10101101000 8
b1010111110 7
b10100 6
b101101001 2
b101000001 1
b10011 0
1%
#390
0%
#400
b110001101110000000000000 !
b110001101110000000000000 ,
b1101011001100000000000 "
b1101011001100000000000 +
b110101000000000000 #
b110101000000000000 *
b100011011001 5
b11010101111 4
b1110001 3
b11100101010 >
b11010101100 =
b1110111 <
b10101101001 8
b1010111111 7
b10101 6
b101101010 2
b101000000 1
b10100 0
1%
#410
0%
#420
b110001101100100000000000 !
b110001101100100000000000 ,
b1101010111100000000000 "
b1101010111100000000000 +
b111000100000000000 #
b111000100000000000 *
b100011010110 5
b11010101100 4
b1110111 3
b11100101100 >
b11010101001 =
b1111101 <
b10101101010 8
b1011000000 7
b10110 6
b101101011 2
b100111111 1
b10101 0
1%
#430
0%
#440
b110001101011000000000000 !
b110001101011000000000000 ,
b1101010110000000000000 "
b1101010110000000000000 +
b111011100000000000 #
b111011100000000000 *
b100011010100 5
b11010101001 4
b1111101 3
b11100101111 >
b11010100101 =
b10000100 <
b10101101011 8
b1011000001 7
b10111 6
b101101100 2
b100111110 1
b10110 0
1%
#450
0%
#460
b110001101010000000000000 !
b110001101010000000000000 ,
b1101010100100000000000 "
b1101010100100000000000 +
b111110100000000000 #
b111110100000000000 *
b100011010001 5
b11010100101 4
b10000100 3
b11100110010 >
b11010100010 =
b10001010 <
b10101101100 8
b1011000010 7
b11000 6
b101101101 2
b100111101 1
b10111 0
1%
#470
0%
#480
b110001101000100000000000 !
b110001101000100000000000 ,
b1101010010100000000000 "
b1101010010100000000000 +
b1000010000000000000 #
b1000010000000000000 *
b100011001110 5
b11010100010 4
b10001010 3
b11100110101 >
b11010011110 =
b10010000 <
b10101101101 8
b1011000011 7
b11001 6
b101101110 2
b100111100 1
b11000 0
1%
#490
0%
#500
b110001100111000000000000 !
b110001100111000000000000 ,
b1101010001000000000000 "
b1101010001000000000000 +
b1000101000000000000 #
b1000101000000000000 *
b100011001011 5
b11010011110 4
b10010000 3
b11100110111 >
b11010011010 =
b10010110 <
b10101101110 8
b1011000100 7
b11010 6
b101101111 2
b100111011 1
b11001 0
1%
#510
0%
#520
b110001100101100000000000 !
b110001100101100000000000 ,
b1101001111000000000000 "
b1101001111000000000000 +
b1001000000000000000 #
b1001000000000000000 *
b100011001001 5
b11010011010 4
b10010110 3
b11100111010 >
b11010010111 =
b10011101 <
b10101101111 8
b1011000101 7
b11011 6
b101110000 2
b100111010 1
b11010 0
1%
#530
0%
#540
b110001100100100000000000 !
b110001100100100000000000 ,
b1101001101000000000000 "
b1101001101000000000000 +
b1001011000000000000 #
b1001011000000000000 *
b100011000110 5
b11010010111 4
b10011101 3
b11100111101 >
b11010010011 =
b10100011 <
b10101110000 8
b1011000110 7
b11100 6
b101110001 2
b100111001 1
b11011 0
1%
#550
0%
#560
b110001100011000000000000 !
b110001100011000000000000 ,
b1101001011100000000000 "
b1101001011100000000000 +
b1001110100000000000 #
b1001110100000000000 *
b100011000011 5
b11010010011 4
b10100011 3
b11100111111 >
b11010010000 =
b10101001 <
b10101110001 8
b1011000111 7
b11101 6
b101110010 2
b100111000 1
b11100 0
1%
#570
0%
#580
b110001100001100000000000 !
b110001100001100000000000 ,
b1101001001100000000000 "
b1101001001100000000000 +
b1010001100000000000 #
b1010001100000000000 *
b100011000001 5
b11010010000 4
b10101001 3
b11101000010 >
b11010001100 =
b10110000 <
b10101110010 8
b1011001000 7
b11110 6
b101110011 2
b100110111 1
b11101 0
1%
#590
0%
#600
b110001100000100000000000 !
b110001100000100000000000 ,
b1101001000000000000000 "
b1101001000000000000000 +
b1010100100000000000 #
b1010100100000000000 *
b100010111110 5
b11010001100 4
b10110000 3
b11101000101 >
b11010001000 =
b10110110 <
b10101110011 8
b1011001001 7
b11111 6
b101110100 2
b100110110 1
b11110 0
1%
#610
0%
#620
b110001011111000000000000 !
b110001011111000000000000 ,
b1101000110000000000000 "
b1101000110000000000000 +
b1011000000000000000 #
b1011000000000000000 *
b100010111011 5
b11010001000 4
b10110110 3
b11101000111 >
b11010000101 =
b10111100 <
b10101110100 8
b1011001010 7
b100000 6
b101110101 2
b100110101 1
b11111 0
1%
#630
0%
#640
b110001011101100000000000 !
b110001011101100000000000 ,
b1101000100000000000000 "
b1101000100000000000000 +
b1011011000000000000 #
b1011011000000000000 *
b100010111001 5
b11010000101 4
b10111100 3
b11101001010 >
b11010000001 =
b11000010 <
b10101110101 8
b1011001011 7
b100001 6
b101110110 2
b100110100 1
b100000 0
1%
#650
0%
#660
b110001011100100000000000 !
b110001011100100000000000 ,
b1101000010100000000000 "
b1101000010100000000000 +
b1011110000000000000 #
b1011110000000000000 *
b100010110110 5
b11010000001 4
b11000010 3
b11101001101 >
b11001111110 =
b11001001 <
b10101110110 8
b1011001100 7
b100010 6
b101110111 2
b100110011 1
b100001 0
1%
#670
0%
#680
b110001011011000000000000 !
b110001011011000000000000 ,
b1101000000100000000000 "
b1101000000100000000000 +
b1100001000000000000 #
b1100001000000000000 *
b100010110011 5
b11001111110 4
b11001001 3
b11101001111 >
b11001111010 =
b11001111 <
b10101110111 8
b1011001101 7
b100011 6
b101111000 2
b100110010 1
b100010 0
1%
#690
0%
#700
b110001011001100000000000 !
b110001011001100000000000 ,
b1100111111000000000000 "
b1100111111000000000000 +
b1100100100000000000 #
b1100100100000000000 *
b100010110001 5
b11001111010 4
b11001111 3
b11101010010 >
b11001110110 =
b11010101 <
b10101111000 8
b1011001110 7
b100100 6
b101111001 2
b100110001 1
b100011 0
1%
#710
0%
#720
b110001011000100000000000 !
b110001011000100000000000 ,
b1100111101000000000000 "
b1100111101000000000000 +
b1100111100000000000 #
b1100111100000000000 *
b100010101110 5
b11001110110 4
b11010101 3
b11101010100 >
b11001110010 =
b11011011 <
b10101111001 8
b1011001111 7
b100101 6
b101111010 2
b100110000 1
b100100 0
1%
#730
0%
#740
b110001010111000000000000 !
b110001010111000000000000 ,
b1100111011000000000000 "
b1100111011000000000000 +
b1101010100000000000 #
b1101010100000000000 *
b100010101100 5
b11001110010 4
b11011011 3
b11101010111 >
b11001101111 =
b11100010 <
b10101111010 8
b1011010000 7
b100110 6
b101111011 2
b100101111 1
b100101 0
1%
#750
0%
#760
b110001010110000000000000 !
b110001010110000000000000 ,
b1100111001000000000000 "
b1100111001000000000000 +
b1101101100000000000 #
b1101101100000000000 *
b100010101001 5
b11001101111 4
b11100010 3
b11101011001 >
b11001101011 =
b11101000 <
b10101111011 8
b1011010001 7
b100111 6
b101111100 2
b100101110 1
b100110 0
1%
#770
0%
#780
b110001010100100000000000 !
b110001010100100000000000 ,
b1100110111100000000000 "
b1100110111100000000000 +
b1110001000000000000 #
b1110001000000000000 *
b100010100111 5
b11001101011 4
b11101000 3
b11101011100 >
b11001100111 =
b11101110 <
b10101111100 8
b1011010010 7
b101000 6
b101111101 2
b100101101 1
b100111 0
1%
#790
0%
#800
b110001010011100000000000 !
b110001010011100000000000 ,
b1100110101100000000000 "
b1100110101100000000000 +
b1110100000000000000 #
b1110100000000000000 *
b100010100100 5
b11001100111 4
b11101110 3
b11101011110 >
b11001100011 =
b11110100 <
b10101111101 8
b1011010011 7
b101001 6
b101111110 2
b100101100 1
b101000 0
1%
#810
0%
#820
b110001010010000000000000 !
b110001010010000000000000 ,
b1100110011100000000000 "
b1100110011100000000000 +
b1110111000000000000 #
b1110111000000000000 *
b100010100010 5
b11001100011 4
b11110100 3
b11101100001 >
b11001100000 =
b11111011 <
b10101111110 8
b1011010100 7
b101010 6
b101111111 2
b100101011 1
b101001 0
1%
#830
0%
#840
b110001010001000000000000 !
b110001010001000000000000 ,
b1100110001100000000000 "
b1100110001100000000000 +
b1111010000000000000 #
b1111010000000000000 *
b100010011111 5
b11001100000 4
b11111011 3
b11101100011 >
b11001011100 =
b100000001 <
b10101111111 8
b1011010101 7
b101011 6
b110000000 2
b100101010 1
b101010 0
1%
#850
0%
#860
b110001001111100000000000 !
b110001001111100000000000 ,
b1100110000000000000000 "
b1100110000000000000000 +
b1111101100000000000 #
b1111101100000000000 *
b100010011101 5
b11001011100 4
b100000001 3
b11101100101 >
b11001011000 =
b100000111 <
b10110000000 8
b1011010110 7
b101100 6
b110000001 2
b100101001 1
b101011 0
1%
#870
0%
#880
b110001001110100000000000 !
b110001001110100000000000 ,
b1100101110000000000000 "
b1100101110000000000000 +
b10000000100000000000 #
b10000000100000000000 *
b100010011011 5
b11001011000 4
b100000111 3
b11101101000 >
b11001010100 =
b100001101 <
b10110000001 8
b1011010111 7
b101101 6
b110000010 2
b100101000 1
b101100 0
1%
#890
0%
#900
b110001001101100000000000 !
b110001001101100000000000 ,
b1100101100000000000000 "
b1100101100000000000000 +
b10000011100000000000 #
b10000011100000000000 *
b100010011000 5
b11001010100 4
b100001101 3
b11101101010 >
b11001010000 =
b100010100 <
b10110000010 8
b1011011000 7
b101110 6
b110000011 2
b100100111 1
b101101 0
1%
#910
0%
#920
b110001001100000000000000 !
b110001001100000000000000 ,
b1100101010000000000000 "
b1100101010000000000000 +
b10000110100000000000 #
b10000110100000000000 *
b100010010110 5
b11001010000 4
b100010100 3
b11101101101 >
b11001001100 =
b100011010 <
b10110000011 8
b1011011001 7
b101111 6
b110000100 2
b100100110 1
b101110 0
1%
#930
0%
#940
b110001001011000000000000 !
b110001001011000000000000 ,
b1100101000000000000000 "
b1100101000000000000000 +
b10001010000000000000 #
b10001010000000000000 *
b100010010011 5
b11001001100 4
b100011010 3
b11101101111 >
b11001001001 =
b100100000 <
b10110000100 8
b1011011010 7
b110000 6
b110000101 2
b100100101 1
b101111 0
1%
#950
0%
#960
b110001001001100000000000 !
b110001001001100000000000 ,
b1100100110000000000000 "
b1100100110000000000000 +
b10001101000000000000 #
b10001101000000000000 *
b100010010001 5
b11001001001 4
b100100000 3
b11101110001 >
b11001000101 =
b100100110 <
b10110000101 8
b1011011011 7
b110001 6
b110000110 2
b100100100 1
b110000 0
1%
#970
0%
#980
b110001001000100000000000 !
b110001001000100000000000 ,
b1100100100100000000000 "
b1100100100100000000000 +
b10010000000000000000 #
b10010000000000000000 *
b100010001111 5
b11001000101 4
b100100110 3
b11101110011 >
b11001000001 =
b100101101 <
b10110000110 8
b1011011100 7
b110010 6
b110000111 2
b100100011 1
b110001 0
1%
#990
0%
#1000
b110001000111100000000000 !
b110001000111100000000000 ,
b1100100010100000000000 "
b1100100010100000000000 +
b10010011000000000000 #
b10010011000000000000 *
b100010001101 5
b11001000001 4
b100101101 3
b11101110110 >
b11000111101 =
b100110011 <
b10110000111 8
b1011011101 7
b110011 6
b110001000 2
b100100010 1
b110010 0
1%
#1010
0%
#1020
b110001000110100000000000 !
b110001000110100000000000 ,
b1100100000100000000000 "
b1100100000100000000000 +
b10010110100000000000 #
b10010110100000000000 *
b100010001010 5
b11000111101 4
b100110011 3
b11101111000 >
b11000111001 =
b100111001 <
b10110001000 8
b1011011110 7
b110100 6
b110001001 2
b100100001 1
b110011 0
1%
#1030
0%
#1040
b110001000101000000000000 !
b110001000101000000000000 ,
b1100011110100000000000 "
b1100011110100000000000 +
b10011001100000000000 #
b10011001100000000000 *
b100010001000 5
b11000111001 4
b100111001 3
b11101111010 >
b11000110101 =
b100111111 <
b10110001001 8
b1011011111 7
b110101 6
b110001010 2
b100100000 1
b110100 0
1%
#1050
0%
#1060
b110001000100000000000000 !
b110001000100000000000000 ,
b1100011100100000000000 "
b1100011100100000000000 +
b10011100100000000000 #
b10011100100000000000 *
b100010000110 5
b11000110101 4
b100111111 3
b11101111100 >
b11000110001 =
b101000101 <
b10110001010 8
b1011100000 7
b110110 6
b110001011 2
b100011111 1
b110101 0
1%
#1070
0%
#1080
b110001000011000000000000 !
b110001000011000000000000 ,
b1100011010100000000000 "
b1100011010100000000000 +
b10011111100000000000 #
b10011111100000000000 *
b100010000100 5
b11000110001 4
b101000101 3
b11101111111 >
b11000101101 =
b101001100 <
b10110001011 8
b1011100001 7
b110111 6
b110001100 2
b100011110 1
b110110 0
1%
#1090
0%
#1100
b110001000010000000000000 !
b110001000010000000000000 ,
b1100011000100000000000 "
b1100011000100000000000 +
b10100010100000000000 #
b10100010100000000000 *
b100010000001 5
b11000101101 4
b101001100 3
b11110000001 >
b11000101001 =
b101010010 <
b10110001100 8
b1011100010 7
b111000 6
b110001101 2
b100011101 1
b110111 0
1%
#1110
0%
#1120
b110001000000100000000000 !
b110001000000100000000000 ,
b1100010110100000000000 "
b1100010110100000000000 +
b10100110000000000000 #
b10100110000000000000 *
b100001111111 5
b11000101001 4
b101010010 3
b11110000011 >
b11000100101 =
b101011000 <
b10110001101 8
b1011100011 7
b111001 6
b110001110 2
b100011100 1
b111000 0
1%
#1130
0%
#1140
b110000111111100000000000 !
b110000111111100000000000 ,
b1100010100100000000000 "
b1100010100100000000000 +
b10101001000000000000 #
b10101001000000000000 *
b100001111101 5
b11000100101 4
b101011000 3
b11110000101 >
b11000100001 =
b101011110 <
b10110001110 8
b1011100100 7
b111010 6
b110001111 2
b100011011 1
b111001 0
1%
#1150
0%
#1160
b110000111110100000000000 !
b110000111110100000000000 ,
b1100010010100000000000 "
b1100010010100000000000 +
b10101100000000000000 #
b10101100000000000000 *
b100001111011 5
b11000100001 4
b101011110 3
b11110000111 >
b11000011101 =
b101100101 <
b10110001111 8
b1011100101 7
b111011 6
b110010000 2
b100011010 1
b111010 0
1%
#1170
0%
#1180
b110000111101100000000000 !
b110000111101100000000000 ,
b1100010000100000000000 "
b1100010000100000000000 +
b10101111000000000000 #
b10101111000000000000 *
b100001111001 5
b11000011101 4
b101100101 3
b11110001001 >
b11000011001 =
b101101011 <
b10110010000 8
b1011100110 7
b111100 6
b110010001 2
b100011001 1
b111011 0
1%
#1190
0%
#1200
b110000111100100000000000 !
b110000111100100000000000 ,
b1100001110100000000000 "
b1100001110100000000000 +
b10110010100000000000 #
b10110010100000000000 *
b100001110111 5
b11000011001 4
b101101011 3
b11110001100 >
b11000010101 =
b101110001 <
b10110010001 8
b1011100111 7
b111101 6
b110010010 2
b100011000 1
b111100 0
1%
#1210
0%
#1220
b110000111011100000000000 !
b110000111011100000000000 ,
b1100001100100000000000 "
b1100001100100000000000 +
b10110101100000000000 #
b10110101100000000000 *
b100001110100 5
b11000010101 4
b101110001 3
b11110001110 >
b11000010001 =
b101110111 <
b10110010010 8
b1011101000 7
b111110 6
b110010011 2
b100010111 1
b111101 0
1%
#1230
0%
#1240
b110000111010000000000000 !
b110000111010000000000000 ,
b1100001010100000000000 "
b1100001010100000000000 +
b10111000100000000000 #
b10111000100000000000 *
b100001110010 5
b11000010001 4
b101110111 3
b11110010000 >
b11000001100 =
b101111101 <
b10110010011 8
b1011101001 7
b111111 6
b110010100 2
b100010110 1
b111110 0
1%
#1250
0%
#1260
b110000111001000000000000 !
b110000111001000000000000 ,
b1100001000100000000000 "
b1100001000100000000000 +
b10111011100000000000 #
b10111011100000000000 *
b100001110000 5
b11000001100 4
b101111101 3
b11110010010 >
b11000001000 =
b110000011 <
b10110010100 8
b1011101010 7
b1000000 6
b110010101 2
b100010101 1
b111111 0
1%
#1270
0%
#1280
b110000111000000000000000 !
b110000111000000000000000 ,
b1100000110000000000000 "
b1100000110000000000000 +
b10111110100000000000 #
b10111110100000000000 *
b100001101110 5
b11000001000 4
b110000011 3
b11110010100 >
b11000000100 =
b110001010 <
b10110010101 8
b1011101011 7
b1000001 6
b110010110 2
b100010100 1
b1000000 0
1%
#1290
0%
#1300
b110000110111000000000000 !
b110000110111000000000000 ,
b1100000100000000000000 "
b1100000100000000000000 +
b11000001100000000000 #
b11000001100000000000 *
b100001101100 5
b11000000100 4
b110001010 3
b11110010110 >
b11000000000 =
b110010000 <
b10110010110 8
b1011101100 7
b1000010 6
b110010111 2
b100010011 1
b1000001 0
1%
#1310
0%
#1320
b110000110110000000000000 !
b110000110110000000000000 ,
b1100000010000000000000 "
b1100000010000000000000 +
b11000101000000000000 #
b11000101000000000000 *
b100001101010 5
b11000000000 4
b110010000 3
b11110011000 >
b10111111100 =
b110010110 <
b10110010111 8
b1011101101 7
b1000011 6
b110011000 2
b100010010 1
b1000010 0
1%
#1330
0%
#1340
b110000110101000000000000 !
b110000110101000000000000 ,
b1100000000000000000000 "
b1100000000000000000000 +
b11001000000000000000 #
b11001000000000000000 *
b100001101000 5
b10111111100 4
b110010110 3
b11110011010 >
b10111111000 =
b110011100 <
b10110011000 8
b1011101110 7
b1000100 6
b110011001 2
b100010001 1
b1000011 0
1%
#1350
0%
#1360
b110000110100000000000000 !
b110000110100000000000000 ,
b1011111110000000000000 "
b1011111110000000000000 +
b11001011000000000000 #
b11001011000000000000 *
b100001100110 5
b10111111000 4
b110011100 3
b11110011100 >
b10111110011 =
b110100010 <
b10110011001 8
b1011101111 7
b1000101 6
b110011010 2
b100010000 1
b1000100 0
1%
#1370
0%
#1380
b110000110011000000000000 !
b110000110011000000000000 ,
b1011111100000000000000 "
b1011111100000000000000 +
b11001110000000000000 #
b11001110000000000000 *
b100001100100 5
b10111110011 4
b110100010 3
b11110011110 >
b10111101111 =
b110101000 <
b10110011010 8
b1011110000 7
b1000110 6
b110011011 2
b100001111 1
b1000101 0
1%
#1390
0%
#1400
b110000110010000000000000 !
b110000110010000000000000 ,
b1011111001100000000000 "
b1011111001100000000000 +
b11010001000000000000 #
b11010001000000000000 *
b100001100010 5
b10111101111 4
b110101000 3
b11110011111 >
b10111101011 =
b110101111 <
b10110011011 8
b1011110001 7
b1000111 6
b110011100 2
b100001110 1
b1000110 0
1%
#1410
0%
#1420
b110000110001000000000000 !
b110000110001000000000000 ,
b1011110111100000000000 "
b1011110111100000000000 +
b11010100000000000000 #
b11010100000000000000 *
b100001100001 5
b10111101011 4
b110101111 3
b11110100001 >
b10111100111 =
b110110101 <
b10110011100 8
b1011110010 7
b1001000 6
b110011101 2
b100001101 1
b1000111 0
1%
#1430
0%
#1440
b110000110000100000000000 !
b110000110000100000000000 ,
b1011110101100000000000 "
b1011110101100000000000 +
b11010111100000000000 #
b11010111100000000000 *
b100001011111 5
b10111100111 4
b110110101 3
b11110100011 >
b10111100010 =
b110111011 <
b10110011101 8
b1011110011 7
b1001001 6
b110011110 2
b100001100 1
b1001000 0
1%
#1450
0%
#1460
b110000101111100000000000 !
b110000101111100000000000 ,
b1011110011100000000000 "
b1011110011100000000000 +
b11011010100000000000 #
b11011010100000000000 *
b100001011101 5
b10111100010 4
b110111011 3
b11110100101 >
b10111011110 =
b111000001 <
b10110011110 8
b1011110100 7
b1001010 6
b110011111 2
b100001011 1
b1001001 0
1%
#1470
0%
#1480
b110000101110100000000000 !
b110000101110100000000000 ,
b1011110001000000000000 "
b1011110001000000000000 +
b11011101100000000000 #
b11011101100000000000 *
b100001011011 5
b10111011110 4
b111000001 3
b11110100111 >
b10111011010 =
b111000111 <
b10110011111 8
b1011110101 7
b1001011 6
b110100000 2
b100001010 1
b1001010 0
1%
#1490
0%
#1500
b110000101101100000000000 !
b110000101101100000000000 ,
b1011101111000000000000 "
b1011101111000000000000 +
b11100000100000000000 #
b11100000100000000000 *
b100001011001 5
b10111011010 4
b111000111 3
b11110101001 >
b10111010110 =
b111001101 <
b10110100000 8
b1011110110 7
b1001100 6
b110100001 2
b100001001 1
b1001011 0
1%
#1510
0%
#1520
b110000101100100000000000 !
b110000101100100000000000 ,
b1011101101000000000000 "
b1011101101000000000000 +
b11100011100000000000 #
b11100011100000000000 *
b100001010111 5
b10111010110 4
b111001101 3
b11110101011 >
b10111010001 =
b111010011 <
b10110100001 8
b1011110111 7
b1001101 6
b110100010 2
b100001000 1
b1001100 0
1%
#1530
0%
#1540
b110000101011100000000000 !
b110000101011100000000000 ,
b1011101011000000000000 "
b1011101011000000000000 +
b11100110100000000000 #
b11100110100000000000 *
b100001010101 5
b10111010001 4
b111010011 3
b11110101100 >
b10111001101 =
b111011010 <
b10110100010 8
b1011111000 7
b1001110 6
b110100011 2
b100000111 1
b1001101 0
1%
#1550
0%
#1560
b110000101010100000000000 !
b110000101010100000000000 ,
b1011101000100000000000 "
b1011101000100000000000 +
b11101001100000000000 #
b11101001100000000000 *
b100001010100 5
b10111001101 4
b111011010 3
b11110101110 >
b10111001001 =
b111100000 <
b10110100011 8
b1011111001 7
b1001111 6
b110100100 2
b100000110 1
b1001110 0
1%
#1570
0%
#1580
b110000101010000000000000 !
b110000101010000000000000 ,
b1011100110100000000000 "
b1011100110100000000000 +
b11101101000000000000 #
b11101101000000000000 *
b100001010010 5
b10111001001 4
b111100000 3
b11110110000 >
b10111000100 =
b111100110 <
b10110100100 8
b1011111010 7
b1010000 6
b110100101 2
b100000101 1
b1001111 0
1%
#1590
0%
#1600
b110000101001000000000000 !
b110000101001000000000000 ,
b1011100100100000000000 "
b1011100100100000000000 +
b11110000000000000000 #
b11110000000000000000 *
b100001010000 5
b10111000100 4
b111100110 3
b11110110010 >
b10111000000 =
b111101100 <
b10110100101 8
b1011111011 7
b1010001 6
b110100110 2
b100000100 1
b1010000 0
1%
#1610
0%
#1620
b110000101000000000000000 !
b110000101000000000000000 ,
b1011100010000000000000 "
b1011100010000000000000 +
b11110011000000000000 #
b11110011000000000000 *
b100001001110 5
b10111000000 4
b111101100 3
b11110110011 >
b10110111100 =
b111110010 <
b10110100110 8
b1011111100 7
b1010010 6
b110100111 2
b100000011 1
b1010001 0
1%
#1630
0%
#1640
b110000100111000000000000 !
b110000100111000000000000 ,
b1011100000000000000000 "
b1011100000000000000000 +
b11110110000000000000 #
b11110110000000000000 *
b100001001101 5
b10110111100 4
b111110010 3
b11110110101 >
b10110110111 =
b111111000 <
b10110100111 8
b1011111101 7
b1010011 6
b110101000 2
b100000010 1
b1010010 0
1%
#1650
0%
